<?xml version="1.0" encoding="utf-8"?>
<!-- Generator: Adobe Illustrator 21.0.0, SVG Export Plug-In . SVG Version: 6.00 Build 0)  -->
<svg version="1.1" id="Layer_1" xmlns="http://www.w3.org/2000/svg" xmlns:xlink="http://www.w3.org/1999/xlink" x="0px" y="0px"
	 width="41px" height="41px" viewBox="0 0 41 41" style="enable-background:new 0 0 41 41;" xml:space="preserve">
<style type="text/css">
	.st0{fill:#009FE3;}
</style>
<g>
	<path class="st0" d="M20.5,0C9.2,0,0,9.2,0,20.5S9.2,41,20.5,41C31.8,41,41,31.8,41,20.5S31.8,0,20.5,0z M20.5,40
		C9.7,40,1,31.3,1,20.5S9.7,1,20.5,1C31.3,1,40,9.7,40,20.5S31.3,40,20.5,40z"/>
	<path class="st0" d="M20.4,4.8c-5.2,0-9,4.2-9,10.1c0,4.6,3.7,10.1,7.3,11.5c-0.3,0.4-0.6,0.9-0.6,1.5c0,1.1,0.8,2,1.8,2.3
		c0,0.5,0.1,1.1,0.5,1.7c0.6,1.1,1,1.9,0.3,2.9c-1.1,1.6-0.8,2.6-0.8,2.8c0.1,0.3,0.3,0.4,0.6,0.4c0.1,0,0.1,0,0.2,0
		c0.3-0.1,0.5-0.5,0.5-0.8c0,0-0.1-0.6,0.6-1.6c1.2-1.7,0.3-3.3-0.3-4.3c-0.2-0.4-0.3-0.9-0.3-1.2c0.9-0.3,1.5-1.2,1.5-2.1
		c0-0.6-0.2-1.2-0.6-1.6c3.5-1.5,7.2-7,7.2-11.4C29.4,9.1,25.6,4.8,20.4,4.8z M19.7,27.9c0-0.4,0.4-0.8,0.8-0.8
		c0.4,0,0.8,0.4,0.8,0.8s-0.4,0.8-0.8,0.8C20.1,28.7,19.7,28.3,19.7,27.9z M20.4,25.2c-2.9,0-7.5-5.6-7.5-10.3c0-5,3.1-8.6,7.5-8.6
		s7.5,3.6,7.5,8.6C27.9,19.5,23.2,25.2,20.4,25.2z"/>
	<path class="st0" d="M20.2,8.3c-0.4,0-0.7,0.3-0.7,0.6c0,0.4,0.3,0.7,0.6,0.7c1.2,0.1,2.3,0.6,3.1,1.5c0.8,0.9,1.2,2,1.2,3.2
		c0,0.4,0.3,0.7,0.6,0.7c0,0,0,0,0,0c0.4,0,0.6-0.3,0.7-0.6c0.1-1.6-0.5-3.1-1.5-4.2C23.2,9,21.8,8.4,20.2,8.3z"/>
</g>
</svg>
