<?xml version="1.0" encoding="utf-8"?>
<!-- Generator: Adobe Illustrator 21.0.0, SVG Export Plug-In . SVG Version: 6.00 Build 0)  -->
<svg version="1.1" id="Layer_1" xmlns="http://www.w3.org/2000/svg" xmlns:xlink="http://www.w3.org/1999/xlink" x="0px" y="0px"
	 width="89px" height="89px" viewBox="0 0 89 89" style="enable-background:new 0 0 89 89;" xml:space="preserve">
<style type="text/css">
	.st0{fill:#F4B416;}
</style>
<g>
	<path class="st0" d="M44.5,0.3C20.1,0.3,0.3,20.1,0.3,44.5s19.8,44.2,44.2,44.2c24.4,0,44.2-19.8,44.2-44.2S68.9,0.3,44.5,0.3z
		 M44.5,86.6c-23.2,0-42.1-18.9-42.1-42.1S21.3,2.4,44.5,2.4c23.2,0,42.1,18.9,42.1,42.1S67.7,86.6,44.5,86.6z"/>
	<path class="st0" d="M59.3,31.3v-8.5h3.2c0.6,0,1.1-0.5,1.1-1.1s-0.5-1.1-1.1-1.1h-36c-0.6,0-1.1,0.5-1.1,1.1s0.5,1.1,1.1,1.1h3.2
		v8.5c0,6.4,3.9,11.8,9.4,14c-5.5,2.2-9.4,7.6-9.4,14v8.5h-3.2c-0.6,0-1.1,0.5-1.1,1.1s0.5,1.1,1.1,1.1h36c0.6,0,1.1-0.5,1.1-1.1
		s-0.5-1.1-1.1-1.1h-3.2v-8.5c0-6.4-3.9-11.8-9.4-14C55.4,43.1,59.3,37.7,59.3,31.3z M57.2,59.3v8.5H31.8v-8.5
		c0-7.1,5.7-12.9,12.7-12.9S57.2,52.2,57.2,59.3z M44.5,44.2c-7,0-12.7-5.8-12.7-12.9v-8.5h25.4v8.5C57.2,38.4,51.5,44.2,44.5,44.2z
		"/>
	<path class="st0" d="M53.5,30.6h-18c-0.6,0-1.1,0.5-1.1,1.1c0,5.6,4.5,10.2,10,10.2c5.5,0,10-4.6,10-10.2
		C54.6,31.1,54.1,30.6,53.5,30.6z M44.5,39.7c-4,0-7.3-3.1-7.9-7h15.7C51.8,36.7,48.5,39.7,44.5,39.7z"/>
</g>
</svg>
