<svg version="1.1" id="Layer_1" xmlns="http://www.w3.org/2000/svg" xmlns:xlink="http://www.w3.org/1999/xlink" x="0px" y="0px"
	  xml:space="preserve">
<polygon fill="#68b6fb" points="37.724,33.5 36.523,34.617 41.254,39.999 36.5,45.4 37.724,46.5 43.5,39.999 "/>
</svg>
