<?xml version="1.0" encoding="utf-8"?>
<!-- Generator: Adobe Illustrator 21.0.0, SVG Export Plug-In . SVG Version: 6.00 Build 0)  -->
<svg version="1.1" id="Layer_1" xmlns="http://www.w3.org/2000/svg" xmlns:xlink="http://www.w3.org/1999/xlink" x="0px" y="0px"
	 width="40px" height="40px" viewBox="0 0 40 40" style="enable-background:new 0 0 40 40;" xml:space="preserve">
<style type="text/css">
	.st0{fill-rule:evenodd;clip-rule:evenodd;fill:#BCBCBC;}
	.st1{fill-rule:evenodd;clip-rule:evenodd;fill:#F1F2F2;}
	.st2{fill:#FA6405;}
</style>
<g>
	<circle class="st0" cx="20" cy="20" r="20"/>
	<circle class="st1" cx="20" cy="20" r="19"/>
	<g>
		<path class="st0" d="M13.6,19l2.4-2.4c0.2-0.2,0.5-0.2,0.7,0l2.4,2.4c0.2,0.2,0.2,0.5,0,0.7l-2.4,2.4c-0.2,0.2-0.5,0.2-0.7,0
			l-2.4-2.4C13.4,19.5,13.4,19.2,13.6,19z"/>
		<path class="st0" d="M23.4,10.1l-2.4,2.4c-0.2,0.2-0.5,0.2-0.7,0l-2.4-2.4c-0.2-0.2-0.2-0.5,0-0.7L20.3,7c0.2-0.2,0.5-0.2,0.7,0
			l2.4,2.4C23.5,9.6,23.5,9.9,23.4,10.1z"/>
	</g>
	<g>
		<path class="st2" d="M30.2,24.3h-1.8h-6.2c0,0-0.1,0-0.1,0V19V19c0-0.6-0.3-1.2-0.7-1.6c-0.1-0.1-0.1-0.2-0.2-0.2l0,0l-1.6-1.6
			h2.2h0h0c0,0,0.1,0,0.1-0.1l5.6-5.6c0,0,0-0.1,0-0.1c0,0,0-0.1,0-0.1L24,6.4l0,0c-0.8-0.8-2.1-0.8-2.9-0.1c0,0.1,0,0.1,0,0.2
			l3.3,3.3l-3.6,3.6h-5.2c0,0-0.1,0-0.1,0.1l-5.8,5.8c0,0,0,0.1,0,0.1c0,0,0,0.1,0,0.1l3.3,3.3l0,0c0.8,0.8,2.1,0.8,2.9,0.1
			c0-0.1,0-0.1,0-0.2l-3.3-3.3l3.8-3.8h0l3.4,3.4v4.9c-0.3,0.1-0.6,0.3-0.8,0.5l0,0l-3.8,3.8l-3.1-3.1l0,0c-0.8-0.8-2.1-0.8-2.9-0.1
			c0,0.1,0,0.1,0,0.2l4.6,4.6v0l1.3,1.3c0.1,0.1,0.1,0.1,0.2,0l1.3-1.3l5.4-5.4c0,0,0,0,0,0c0.1,1.1,1,2,2.1,2h0.1h4.1v4.4v0.1
			c0,1.1,0.9,2.1,2,2.1c0.1,0,0.1-0.1,0.1-0.1v-6.6v-1.8C30.3,24.3,30.2,24.3,30.2,24.3z"/>
		<path class="st2" d="M14.6,12.3L14.6,12.3c0.8,0.8,2.1,0.9,3,0.1c0-0.1,0-0.1,0-0.2l-2.3-2.3l0,0C14.4,9,13.1,9,12.3,9.8
			c0,0.1,0,0.1,0,0.2L14.6,12.3z"/>
	</g>
</g>
</svg>
