<?xml version="1.0" encoding="utf-8"?>
<!-- Generator: Adobe Illustrator 21.0.0, SVG Export Plug-In . SVG Version: 6.00 Build 0)  -->
<svg version="1.1" id="Layer_1" xmlns="http://www.w3.org/2000/svg" xmlns:xlink="http://www.w3.org/1999/xlink" x="0px" y="0px"
	 width="64px" height="64px" viewBox="0 0 64 64" style="enable-background:new 0 0 64 64;" xml:space="preserve">
<style type="text/css">
	.st0{fill-rule:evenodd;clip-rule:evenodd;fill:#fa6405;}
</style>
<g>
	<ellipse transform="matrix(0.8987 -0.4385 0.4385 0.8987 -11.7433 17.9687)" class="st0" cx="33" cy="34.4" rx="8.1" ry="7.6"/>
	<path class="st0" d="M32.5,49.6c0.5,2.1,1.3,4.2,2.5,6c0.9,1.3,1.9,2.5,3,3.4c3.4,2.7,9.6,4.4,13.7,2.3c3.2-1.6,5.4-4.5,6.4-8.2
		c0.9-3.4,0.6-7.1-0.9-10.2c-1.8,0.9-3.9,1.5-6.1,1.7c-1.3,0.1-2.6,0.1-3.9,0l-0.5-0.1c-1.9-0.2-4.8-1-6.9-2.6
		c-0.6,0.5-1.2,1-1.9,1.3c0.9,1.6,2.7,3.4,4.2,4.4c0.7,0.5,0.7,1.3,0.3,1.8c-0.2,0.3-0.5,0.5-0.8,0.6c-0.4,0.1-0.7,0-1.1-0.2
		c-2.3-1.6-4.1-3.6-5.2-5.6c-1.1,0.3-2.1,0.4-3.2,0.4c-0.1,1-0.2,2-0.1,3C32.3,48.4,32.4,49,32.5,49.6z"/>
	<path class="st0" d="M29.8,48.4c-0.2-1.4-0.2-2.8,0-4.1c-1.2-0.3-2.3-0.9-3.2-1.6c-1.6,1-3.3,3.4-4.1,5.2c-0.4,0.8-1.2,0.9-1.8,0.6
		c-0.6-0.3-1-1-0.6-1.8c1.2-2.4,2.8-4.5,4.6-5.9c-0.4-0.6-0.8-1.1-1.1-1.8c-0.5-1.1-0.9-2.3-1-3.5c-0.5-0.1-1-0.1-1.5-0.1
		c-0.2,0-0.3,0-0.5,0c-2.4,0.2-4.8,1.2-6.8,2.9c-1.6,1.4-3,3.4-4.3,5.8c-0.7,1.7-1,3.4-1,5.3c0,3.2,1.3,6.4,3.7,9.3
		c2.3,2.7,5.9,4.2,9.9,4c4.4-0.2,8.5-2.3,10.8-5.5l0,0c-0.2-0.3-0.3-0.5-0.5-0.8C31,54,30.1,51.2,29.8,48.4z"/>
	<path class="st0" d="M12.4,16.5c-1.1,0-2.2,0.1-3.3,0.4c-3.1,0.8-5.6,2.7-7.6,5.7c-2,3-1.7,6.3-1.1,8.4c1.1,4.1,4.2,8,7.8,10
		c0.1-0.3,0.3-0.5,0.5-0.8l0.1-0.1c3.3-5,8.6-7.7,13.8-7.2c0.2-0.9,0.4-1.7,0.8-2.5c-1.5-1.2-4.2-2-6.1-2.3
		c-0.9-0.1-1.2-0.8-1.1-1.5c0.1-0.7,0.6-1.2,1.5-1.1c2.1,0.3,4.1,0.9,5.8,1.8c0.6,0.3,1,0.6,1.3,0.8c0.7-0.8,1.4-1.5,2.3-2.1
		c-0.1-0.4-0.3-0.7-0.4-1.1c-0.9-1.9-2.3-3.6-4.2-5c-0.7-0.5-1.5-1-2.4-1.5c-1.3-0.6-2.7-1.2-4.2-1.6C14.8,16.6,13.6,16.5,12.4,16.5
		z"/>
	<path class="st0" d="M30.5,1.4c-5.9,0.9-12.3,6.8-12.3,13.5l0,0c3.8,1.2,7.1,3.4,9.3,6.3c0.9,1.1,1.6,2.4,2.1,3.7
		c1.4-0.5,2.9-0.8,4.3-0.7c0.4-1.9,0-4.6-0.5-6.5c-0.3-0.8,0.2-1.5,0.9-1.7c0.6-0.2,1.4,0,1.7,0.9c0.6,2.1,0.9,4.1,0.8,6.1
		c0,0.7-0.1,1.3-0.2,1.7c1.3,0.4,2.5,1.1,3.6,1.9c1.9-1.5,3.5-3.4,4.5-5.6c0.7-1.8,1.1-3.9,1.2-6.2l0-1.3c-0.1-0.8-0.2-1.7-0.4-2.5
		C43.7,4.7,37.1,0.5,30.5,1.4z"/>
	<path class="st0" d="M63.9,28.9c0.7-6.9-5.1-12.5-10.9-13.7c-1.6-0.3-3.2-0.4-4.7-0.1c0,2.8-0.7,5.5-2,7.9
		c-1.1,2.1-2.6,3.9-4.5,5.4c0.3,0.4,0.6,0.9,0.8,1.3c0.3,0.7,0.6,1.4,0.8,2.1c1.9,0.1,4.5-0.7,6.1-1.4c0.8-0.4,1.5,0,1.8,0.6
		c0.3,0.6,0.1,1.4-0.6,1.8c-1.9,0.9-4,1.5-5.9,1.6c-0.4,0-0.7,0.1-1.1,0c-0.1,2-0.8,3.9-1.9,5.6c1.3,1,3.3,1.7,5.5,2
		c2.5,0.3,5,0,7.2-0.7c0.6-0.2,1.1-0.4,1.7-0.7C60.5,38.4,63.4,34.2,63.9,28.9z"/>
</g>
</svg>
