<svg width="51" height="52" viewBox="0 0 51 52" fill="none" xmlns="http://www.w3.org/2000/svg">
<path fill-rule="evenodd" clip-rule="evenodd" d="M28.575 25.1619L49.6168 4.12006C50.5594 3.1775 50.5594 1.64947 49.6168 0.706916C48.6743 -0.235639 47.1462 -0.235639 46.2037 0.706916L25.1619 21.7487L4.12006 0.710133C3.1775 -0.232422 1.64947 -0.232422 0.706916 0.710133C-0.235639 1.65269 -0.235639 3.18072 0.706916 4.12328L21.7487 25.1651L0.710133 46.2037C-0.232422 47.1463 -0.232422 48.6743 0.710133 49.6168C1.18302 50.0865 1.79745 50.3246 2.4151 50.3246C3.03274 50.3246 3.65039 50.0897 4.12006 49.6168L25.1619 28.575L46.2037 49.6168C46.6766 50.0865 47.291 50.3246 47.9087 50.3246C48.5263 50.3246 49.1439 50.0897 49.6136 49.6168C50.5562 48.6743 50.5562 47.1463 49.6136 46.2037L28.575 25.1619Z" transform="translate(0.537477 0.861816)" fill="#999999"/>
</svg>
