<?xml version="1.0" encoding="utf-8"?>
<!-- Generator: Adobe Illustrator 16.0.0, SVG Export Plug-In . SVG Version: 6.00 Build 0)  -->
<!DOCTYPE svg PUBLIC "-//W3C//DTD SVG 1.1//EN" "http://www.w3.org/Graphics/SVG/1.1/DTD/svg11.dtd">
<svg version="1.1" id="Layer_1" xmlns="http://www.w3.org/2000/svg" xmlns:xlink="http://www.w3.org/1999/xlink" x="0px" y="0px"
	 width="16.883px" height="12.854px" viewBox="31.558 33.573 16.883 12.854" enable-background="new 31.558 33.573 16.883 12.854"
	 xml:space="preserve">
<g>
	<path fill="none" stroke="#48C77B" stroke-linecap="round" stroke-linejoin="round" d="M34.543,37.693
		c0.9-2.126,3.007-3.62,5.461-3.62c3.273,0,5.928,2.654,5.928,5.927"/>
	<path fill="none" stroke="#FA6405" stroke-linecap="round" stroke-linejoin="round" d="M45.484,42.258
		c-0.889,2.153-3.006,3.669-5.48,3.669c-3.272,0-5.926-2.653-5.926-5.927"/>
	<polyline fill="none" stroke="#48C77B" stroke-width="0.7" stroke-linecap="round" stroke-linejoin="round" points="48.092,37.229 
		46.035,40.241 43.023,38.185 	"/>
	<polyline fill="none" stroke="#FA6405" stroke-width="0.7" stroke-linecap="round" stroke-linejoin="round" points="31.908,42.814 
		33.963,39.804 36.977,41.859 	"/>
</g>
</svg>
