<svg width="51" height="30" viewBox="0 0 51 30" fill="none" xmlns="http://www.w3.org/2000/svg">
<path d="M49.485 4.19365H7.54856V3.77428C7.54856 1.68983 5.85873 0 3.77428 0C1.68983 0 0 1.68983 0 3.77428V25.1619C0.00272587 27.4768 1.87875 29.3528 4.19365 29.3555H43.6139C44.0771 29.3555 44.4526 28.98 44.4526 28.5168V26.0006H49.485C49.9482 26.0006 50.3237 25.6251 50.3237 25.1619V5.03237C50.3237 4.56919 49.9482 4.19365 49.485 4.19365ZM1.67746 3.77428C1.67746 2.61621 2.61621 1.67746 3.77428 1.67746C4.93236 1.67746 5.8711 2.61621 5.8711 3.77428V21.6174C4.60724 20.7555 2.94551 20.7515 1.67746 21.6073V3.77428ZM42.7752 27.6781H4.19365C2.80398 27.6781 1.67746 26.5515 1.67746 25.1619V24.7425C1.67746 23.5844 2.61621 22.6457 3.77428 22.6457C4.93236 22.6457 5.8711 23.5844 5.8711 24.7425V25.1619C5.8711 25.6251 6.24664 26.0006 6.70983 26.0006H42.7752V27.6781ZM48.6463 24.3231H7.54856V5.8711H48.6463V24.3231Z" transform="translate(0.521057 0.610352)" fill="#999999"/>
<path d="M36.9041 0H0.838729C0.375541 0 0 0.375541 0 0.838729V14.2584C0 14.7216 0.375541 15.0971 0.838729 15.0971H36.9041C37.3673 15.0971 37.7428 14.7216 37.7428 14.2584V0.838729C37.7428 0.375541 37.3673 0 36.9041 0ZM36.0654 13.4197H1.67746V1.67746H36.0654V13.4197Z" transform="translate(9.74707 8.15894)" fill="#999999"/>
<path d="M5.8711 0H0V1.67746H5.8711V0Z" transform="translate(13.102 11.5139)" fill="#999999"/>
<path d="M18.452 0H0V1.67746H18.452V0Z" transform="translate(13.102 14.8689)" fill="#999999"/>
<path d="M10.0647 0H0V1.67746H10.0647V0Z" transform="translate(33.2315 14.8689)" fill="#999999"/>
<path d="M13.4197 0H0V1.67746H13.4197V0Z" transform="translate(29.8766 18.2236)" fill="#999999"/>
</svg>
