<svg width="51" height="63" viewBox="0 0 51 63" fill="none" xmlns="http://www.w3.org/2000/svg">
<path d="M43.2145 7.45581H33.5277C33.0445 3.26565 29.4795 0 25.1617 0C20.8441 0 17.2796 3.26552 16.7964 7.45581H7.10907C3.1889 7.45581 0 10.6456 0 14.5656V14.9304C0 17.9261 1.86527 20.4902 4.49291 21.5349V55.1213C4.49291 59.0415 7.6822 62.2311 11.6021 62.2311H38.7216C42.6416 62.2311 45.8307 59.0412 45.8307 55.1213V21.535C48.4582 20.4902 50.3236 17.9261 50.3236 14.9306V14.5658C50.3236 10.6456 47.1344 7.45581 43.2145 7.45581ZM25.1617 3.37181C27.6174 3.37181 29.6672 5.13196 30.1207 7.45581H20.2037C20.6571 5.13183 22.7069 3.37181 25.1617 3.37181ZM42.4589 55.1213C42.4589 57.1824 40.7819 58.8595 38.7215 58.8595H11.602C9.54154 58.8595 7.8646 57.1823 7.8646 55.1213V22.0403H42.4589V55.1213ZM46.9518 14.9304C46.9518 16.9915 45.2748 18.6686 43.2144 18.6686H7.10907C5.04862 18.6686 3.37168 16.9915 3.37168 14.9304V14.5656C3.37168 12.5046 5.04862 10.8275 7.10907 10.8275H43.2145C45.275 10.8275 46.9519 12.5046 46.9519 14.5656V14.9304H46.9518Z" transform="translate(0.268738 0.351562)" fill="#fa6405"/>
<path d="M1.68584 22.3539C2.61693 22.3539 3.37168 21.5989 3.37168 20.6682V1.68597C3.37168 0.755138 2.6168 0 1.68584 0C0.754881 0 1.65298e-08 0.755138 1.65298e-08 1.68597V20.6682C-0.000128979 21.5991 0.754752 22.3539 1.68584 22.3539Z" transform="translate(14.7059 32.5449)" fill="#fa6405"/>
<path d="M1.68584 22.3539C2.61693 22.3539 3.37181 21.5989 3.37181 20.6682V1.68597C3.37181 0.755138 2.61667 0 1.68584 0C0.754882 0 0 0.755138 0 1.68597V20.6682C0 21.5991 0.754753 22.3539 1.68584 22.3539Z" transform="translate(23.7446 32.5449)" fill="#fa6405"/>
<path d="M1.68597 22.3539C2.61693 22.3539 3.37168 21.5989 3.37168 20.6682V1.68597C3.37168 0.755138 2.6168 0 1.68597 0C0.754753 0 1.65241e-08 0.755138 1.65241e-08 1.68597V20.6682C-0.000128979 21.5991 0.755011 22.3539 1.68597 22.3539Z" transform="translate(32.7832 32.5449)" fill="#fa6405"/>
</svg>
