<?xml version="1.0" encoding="utf-8"?>
<!-- Generator: Adobe Illustrator 14.0.0, SVG Export Plug-In . SVG Version: 6.00 Build 43363)  -->
<!DOCTYPE svg PUBLIC "-//W3C//DTD SVG 1.1//EN" "http://www.w3.org/Graphics/SVG/1.1/DTD/svg11.dtd">
<svg version="1.1" id="Layer_1" xmlns="http://www.w3.org/2000/svg" xmlns:xlink="http://www.w3.org/1999/xlink" x="0px" y="0px"
	 width="80px" height="80px" viewBox="0 0 80 80" enable-background="new 0 0 80 80" xml:space="preserve">
<g>
	<g>
		
			<rect x="47.006" y="39.779" transform="matrix(0.7075 0.7067 -0.7067 0.7075 46.0251 -21.5096)" fill="none" stroke="#FFFFFF" stroke-width="0.8894" stroke-linecap="round" stroke-linejoin="round" width="3.981" height="10.129"/>
		
			<rect x="51.407" y="39.281" transform="matrix(0.7071 0.7071 -0.7071 0.7071 44.2359 -25.912)" fill="none" stroke="#FFFFFF" stroke-width="0.8894" stroke-linecap="round" stroke-linejoin="round" width="3.979" height="2.322"/>
		<polygon fill="none" stroke="#FFFFFF" stroke-width="0.8894" stroke-linecap="round" stroke-linejoin="round" points="
			43.023,50.815 44.007,47.018 46.823,49.831 		"/>
	</g>
	<g>
		<path fill="none" stroke="#FFFFFF" d="M24.377,38.244c0,5.003,6.197,9.474,12.817,12.571v-4.807c0,0,8.813-1.601,8.813-7.765
			c0-5.004-4.843-9.06-10.816-9.06C29.22,29.185,24.377,33.24,24.377,38.244z"/>
		<g>
			<line fill="none" stroke="#FFFFFF" stroke-width="2" stroke-linecap="round" x1="30.893" y1="38.163" x2="31.528" y2="38.163"/>
			<line fill="none" stroke="#FFFFFF" stroke-width="2" stroke-linecap="round" x1="34.874" y1="38.163" x2="35.511" y2="38.163"/>
			<line fill="none" stroke="#FFFFFF" stroke-width="2" stroke-linecap="round" x1="38.856" y1="38.163" x2="39.493" y2="38.163"/>
		</g>
	</g>
</g>
</svg>
