<svg width="51" height="41" viewBox="0 0 51 41" fill="none" xmlns="http://www.w3.org/2000/svg">
<path d="M49.1323 0H1.18882C0.532285 0 0 0.532173 0 1.18871V34.2743C0 34.9304 0.532285 35.4619 1.18882 35.4619H19.2174V38.3131C19.2174 38.3554 19.2257 38.3935 19.2299 38.4343H16.6428C16.0413 38.4343 15.5531 38.9225 15.5531 39.5239C15.5531 40.1255 16.0413 40.6142 16.6428 40.6142H34.275C34.8764 40.6142 35.3646 40.1259 35.3646 39.5239C35.3646 38.9225 34.8764 38.4343 34.275 38.4343H31.688C31.6916 38.3948 31.7008 38.3554 31.7008 38.3131V35.4619H49.1348C49.7909 35.4619 50.3238 34.93 50.3238 34.2743V1.18871C50.3218 0.532173 49.7899 0 49.1323 0ZM46.9533 29.0882C46.9533 29.7449 46.4211 30.277 45.7649 30.277H4.5564C3.90031 30.277 3.36791 29.745 3.36791 29.0882V4.00153C3.36791 3.34544 3.90031 2.81304 4.5564 2.81304H45.7649C46.421 2.81304 46.9533 3.34533 46.9533 4.00153V29.0882Z" transform="translate(0.521057)" fill="#bcbcbc"/>
</svg>
