<?xml version="1.0" encoding="utf-8"?>
<!-- Generator: Adobe Illustrator 16.0.0, SVG Export Plug-In . SVG Version: 6.00 Build 0)  -->
<!DOCTYPE svg PUBLIC "-//W3C//DTD SVG 1.1//EN" "http://www.w3.org/Graphics/SVG/1.1/DTD/svg11.dtd">
<svg version="1.1" id="Layer_1" xmlns="http://www.w3.org/2000/svg" xmlns:xlink="http://www.w3.org/1999/xlink" x="0px" y="0px"
	 width="26px" height="26px" viewBox="-0.25 0.25 26 26" enable-background="new -0.25 0.25 26 26" xml:space="preserve">
<g>
	
		<circle fill="none" stroke="#0087FC" stroke-width="1.2" stroke-linecap="round" stroke-linejoin="round" cx="12.75" cy="13.25" r="12.166"/>
	<polyline fill="none" stroke="#0087FC" stroke-width="1.6" stroke-linecap="round" stroke-linejoin="round" points="12.75,19.443 
		12.75,10.112 9.415,10.112 	"/>
	
		<line fill="none" stroke="#0087FC" stroke-width="1.6" stroke-linecap="round" stroke-linejoin="round" x1="9.415" y1="19.695" x2="16.083" y2="19.695"/>
	
		<line fill="none" stroke="#0087FC" stroke-width="1.6" stroke-linecap="round" stroke-linejoin="round" x1="12.75" y1="7.176" x2="12.75" y2="6.085"/>
</g>
</svg>
