<svg width="52" height="56" viewBox="0 0 52 56" fill="none" xmlns="http://www.w3.org/2000/svg">
<path d="M16.3461 14.0592C15.9 14.5053 15.9 15.2304 16.3461 15.6765C16.5703 15.8983 16.863 16.0105 17.1558 16.0105C17.4487 16.0105 17.7414 15.8984 17.9633 15.6765L24.8257 8.81413C24.9309 8.70895 25.0156 8.58081 25.0727 8.44131C25.1048 8.36122 25.1093 8.27887 25.123 8.19427C25.1345 8.13026 25.1619 8.07075 25.1619 8.00438C25.1619 7.91742 25.1299 7.83968 25.1116 7.75958C25.0979 7.69782 25.0979 7.63145 25.0727 7.57205C25.0132 7.42794 24.9264 7.29981 24.8188 7.19001L17.9633 0.334539C17.5173 -0.111513 16.7921 -0.111513 16.3461 0.334539C15.9 0.78059 15.9 1.50575 16.3461 1.9518L21.2526 6.86062H1.14376C0.512423 6.86062 0 7.37304 0 8.00438C0 8.63571 0.512423 9.14814 1.14376 9.14814H21.2573L16.3461 14.0592Z" transform="translate(0.859894 16.5886)" fill="#ffffff"/>
<path d="M33.948 0C33.7718 0 33.6002 0.0343117 33.4287 0.052647C33.3418 0.03206 33.2595 0 33.1679 0H5.71858C2.56652 0 7.42659e-06 2.56651 7.42659e-06 5.71858V17.1558C7.42659e-06 17.7872 0.512432 18.2996 1.14377 18.2996C1.7751 18.2996 2.28752 17.7872 2.28752 17.1558V5.71858C2.28752 3.82682 3.82694 2.28741 5.71869 2.28741H27.5958L19.0064 5.96787C17.1879 6.74793 16.0122 8.52977 16.0122 10.5085V45.7488H5.71869C4.07398 45.7488 2.67642 44.6051 2.33556 44.1316L2.28752 30.8758C2.28527 30.2467 1.77285 29.7366 1.14377 29.7366C1.14377 29.7366 1.14151 29.7366 1.13915 29.7366C0.507819 29.7389 -0.00224428 30.2536 7.42659e-06 30.8849L0.0526541 44.2138C0.00686947 44.7147 0.242548 45.2385 0.768589 45.815C1.70412 46.8397 3.56156 48.0361 5.71858 48.0361H16.0121V49.9598C16.0121 52.6819 18.2286 54.8984 20.9507 54.8984C21.6255 54.8984 22.282 54.7635 22.895 54.5004L35.8923 48.9305C37.7108 48.1504 38.8865 46.3686 38.8865 44.3899V4.93863C38.8866 2.21653 36.6701 0 33.948 0ZM36.5991 44.3902C36.5991 45.4516 35.9677 46.41 34.991 46.8263L21.9938 52.3962C21.6644 52.5403 21.3122 52.6111 20.9507 52.6111C19.489 52.6111 18.2996 51.4217 18.2996 49.96V10.5085C18.2996 9.44707 18.9309 8.48871 19.9076 8.07236L32.9049 2.5025C33.2343 2.35839 33.5865 2.28752 33.948 2.28752C35.4096 2.28752 36.5991 3.47695 36.5991 4.93863V44.3902Z" transform="translate(12.2971 0.574707)" fill="#ffffff"/>
<path d="M1.14384 0C0.512461 0 0 0.512461 0 1.14384V5.71901C0 6.35039 0.512461 6.86285 1.14384 6.86285C1.77523 6.86285 2.28769 6.35039 2.28769 5.71901V1.14374C2.28758 0.512353 1.77523 0 1.14384 0Z" transform="translate(32.8841 25.7366)" fill="#ffffff"/>
</svg>
