<svg width="52" height="51" viewBox="0 0 52 51" fill="none" xmlns="http://www.w3.org/2000/svg">
<path d="M49.8885 47.7679L37.6563 35.5358C40.9376 31.7635 42.9242 26.8416 42.9242 21.4621C42.9242 9.62055 33.2925 0 21.4621 0C9.62055 0 0 9.63171 0 21.4621C0 33.2925 9.63171 42.9242 21.4621 42.9242C26.8416 42.9242 31.7635 40.9376 35.5358 37.6563L47.7679 49.8885C48.0581 50.1787 48.4487 50.3349 48.8282 50.3349C49.2077 50.3349 49.5983 50.1898 49.8885 49.8885C50.4688 49.3081 50.4688 48.3483 49.8885 47.7679ZM3.00224 21.4621C3.00224 11.2835 11.2835 3.0134 21.4509 3.0134C31.6295 3.0134 39.8996 11.2947 39.8996 21.4621C39.8996 31.6295 31.6295 39.922 21.4509 39.922C11.2835 39.922 3.00224 31.6407 3.00224 21.4621Z" transform="translate(0.859894 0.139648)" fill="#ffffff"/>
</svg>
