<svg width="51" height="49" viewBox="0 0 51 49" fill="none" xmlns="http://www.w3.org/2000/svg">
<path d="M6.36844 11.9506C9.88563 11.9506 12.7369 9.2754 12.7369 5.97532C12.7369 2.67524 9.88563 0 6.36844 0C2.85125 0 0 2.67524 0 5.97532C0 9.2754 2.85125 11.9506 6.36844 11.9506Z" transform="translate(17.8379 23.7896) rotate(-26.009)" fill="#999999"/>
<path fill-rule="evenodd" clip-rule="evenodd" d="M0.42568 6.05394C0.818793 7.70502 1.44777 9.35609 2.39125 10.7713C3.09885 11.7934 3.88508 12.7369 4.74993 13.4445C7.4231 15.5673 12.2977 16.9039 15.5212 15.2528C18.0372 13.9948 19.7669 11.7148 20.5531 8.80574C21.2607 6.13257 21.0248 3.22353 19.8455 0.786227C18.4303 1.49383 16.7792 1.96556 15.0495 2.12281C14.0274 2.20143 13.0053 2.20143 11.9832 2.12281L11.5901 2.04419C10.0963 1.88694 7.81621 1.25796 6.16513 0C5.6934 0.393113 5.22166 0.786226 4.67131 1.02209C5.37891 2.28006 6.79411 3.69526 7.97345 4.48149C8.52381 4.8746 8.52382 5.50359 8.20932 5.8967C8.05208 6.13257 7.81621 6.28981 7.58034 6.36843C7.26585 6.44706 7.02998 6.36843 6.71549 6.21119C4.90717 4.95323 3.49196 3.38077 2.62711 1.80832C1.76226 2.04419 0.976038 2.12281 0.111188 2.12281C0.0325656 2.90904 -0.0460558 3.69526 0.0325668 4.48149C0.268435 5.11047 0.347057 5.58221 0.42568 6.05394Z" transform="translate(25.3641 32.2524)" fill="#999999"/>
<path fill-rule="evenodd" clip-rule="evenodd" d="M16.7466 10.2209C16.5894 9.12023 16.5894 8.01951 16.7466 6.99742C15.8032 6.76155 14.9383 6.28981 14.2307 5.73945C12.9727 6.52568 11.6362 8.41263 11.0072 9.82783C10.6927 10.4568 10.0637 10.5354 9.59196 10.2996C9.12023 10.0637 8.80574 9.51334 9.12023 8.88436C10.0637 6.99742 11.3217 5.34634 12.7369 4.24562C12.4224 3.77389 12.1079 3.38077 11.872 2.83041C11.4789 1.96557 11.1644 1.02209 11.0858 0.0786215C10.6927 -1.20086e-06 10.2996 0 9.90646 0C9.74921 0 9.67059 0 9.51334 0C7.6264 0.157245 5.73945 0.94347 4.167 2.28006C2.90904 3.38077 1.80832 4.95323 0.786227 6.84017C0.235868 8.17675 0 9.51334 0 11.0072C0 13.5231 1.02209 16.039 2.90904 18.3191C4.71736 20.4419 7.54778 21.6212 10.6927 21.464C14.1521 21.3067 17.3756 19.6557 19.1839 17.1397C19.0267 16.9039 18.9481 16.7466 18.7908 16.5108C17.6901 14.6238 16.9825 12.4224 16.7466 10.2209Z" transform="translate(6.9203 27.1416)" fill="#999999"/>
<path fill-rule="evenodd" clip-rule="evenodd" d="M9.7878 0C8.92295 0 8.0581 0.0786223 7.19325 0.31449C4.75595 0.943472 2.79038 2.4373 1.21793 4.79598C-0.354526 7.15466 -0.118658 9.74921 0.353078 11.4003C1.21793 14.6238 3.65523 17.6901 6.48564 19.2626C6.56427 19.0267 6.72151 18.8694 6.87876 18.6336L6.95738 18.5549C9.55193 14.6238 13.7189 12.501 17.8073 12.8941C17.9646 12.1865 18.1218 11.5575 18.4363 10.9285C17.2569 9.98508 15.1341 9.3561 13.6403 9.12023C12.9327 9.04161 12.6968 8.49125 12.7755 7.94089C12.8541 7.39053 13.2472 6.99742 13.9548 7.07604C15.6059 7.31191 17.1783 7.78364 18.5149 8.49125C18.9866 8.72711 19.3011 8.96298 19.537 9.12023C20.0874 8.49125 20.6377 7.94089 21.3453 7.46915C21.2667 7.15466 21.1095 6.91879 21.0308 6.6043C20.3232 5.11047 19.2225 3.77389 17.7287 2.67317C17.1783 2.28006 16.5493 1.88694 15.8417 1.49383C14.8196 1.02209 13.7189 0.550358 12.5396 0.235867C11.6747 0.0786221 10.7313 0 9.7878 0Z" transform="translate(0.19873 12.2817)" fill="#999999"/>
<path fill-rule="evenodd" clip-rule="evenodd" d="M9.67059 0.0953403C5.03185 0.802944 0 5.44168 0 10.7094C2.98766 11.6529 5.58221 13.3826 7.31191 15.6626C8.01951 16.5275 8.56987 17.5496 8.96298 18.5717C10.0637 18.1786 11.243 17.9427 12.3438 18.0213C12.6582 16.5275 12.3438 14.4047 11.9506 12.9108C11.7148 12.2819 12.1079 11.7315 12.6582 11.5742C13.13 11.417 13.759 11.5742 13.9948 12.2819C14.4666 13.9329 14.7024 15.5054 14.6238 17.0778C14.6238 17.6282 14.5452 18.0999 14.4666 18.4144C15.4887 18.7289 16.4321 19.2793 17.297 19.9083C18.7908 18.7289 20.0488 17.2351 20.835 15.5054C21.3854 14.0902 21.6999 12.4391 21.7785 10.6308V9.60868C21.6999 8.9797 21.6212 8.2721 21.464 7.64312C20.0488 2.68989 14.8597 -0.612264 9.67059 0.0953403Z" transform="translate(14.5466 0.314453)" fill="#999999"/>
<path fill-rule="evenodd" clip-rule="evenodd" d="M17.3756 10.9923C17.926 5.56738 13.3659 1.16451 8.80574 0.221039C7.54778 -0.0148294 6.28981 -0.0934516 5.11047 0.142416C5.11047 2.34385 4.56011 4.46666 3.53802 6.35361C2.67317 8.00468 1.49383 9.41989 0 10.5992C0.235868 10.9137 0.471735 11.3068 0.628981 11.6213C0.864849 12.1717 1.10072 12.722 1.25796 13.2724C2.75179 13.351 4.79598 12.722 6.05395 12.1717C6.68293 11.8572 7.23328 12.1717 7.46915 12.6434C7.70502 13.1152 7.54778 13.7441 6.99742 14.0586C5.50359 14.7662 3.85251 15.238 2.35868 15.3166C2.04419 15.3166 1.80832 15.3952 1.49383 15.3166C1.41521 16.889 0.864849 18.3829 0 19.7195C1.02209 20.5057 2.59455 21.056 4.32425 21.2919C6.28981 21.5278 8.25538 21.2919 9.98508 20.7416C10.4568 20.5843 10.8499 20.4271 11.3217 20.1912C14.7024 18.4615 16.9825 15.1593 17.3756 10.9923Z" transform="translate(33.1016 11.0391)" fill="#999999"/>
</svg>
