<?xml version="1.0" encoding="utf-8"?>
<!-- Generator: Adobe Illustrator 21.0.0, SVG Export Plug-In . SVG Version: 6.00 Build 0)  -->
<svg version="1.1" id="Layer_1" xmlns="http://www.w3.org/2000/svg" xmlns:xlink="http://www.w3.org/1999/xlink" x="0px" y="0px"
	 width="64px" height="64px" viewBox="0 0 64 64" style="enable-background:new 0 0 64 64;" xml:space="preserve">
<style type="text/css">
	.st0{fill:#BCBCBC;}
</style>
<g>
	<circle class="st0" cx="13.8" cy="7.6" r="7.6"/>
	<path class="st0" d="M51.7,16.6h-2.9c-1.8,0-3.5,0.7-4.8,1.9c-0.2,0.1-0.3,0.3-0.5,0.4L32,30.5L20.4,18.9c-0.1-0.1-0.3-0.3-0.5-0.4
		c-1.3-1.1-2.9-1.9-4.8-1.9h-2.9c-3.9,0-7.1,3.2-7.1,7.1v17.6v0.3v18.3c0,2.3,1.6,4.1,3.6,4.1s3.6-1.9,3.6-4.1v-10h0
		c0.1-0.6,0.6-1.1,1.2-1.1c0.6,0,1.1,0.5,1.2,1.1h0v10c0,2.3,1.6,4.1,3.6,4.1s3.6-1.9,3.6-4.1V41.6v-0.3V31l6.7,6.7
		c0.6,0.6,1.4,1,2.2,1.2c0,0,0.1,0,0.1,0c0.1,0,0.1,0,0.2,0c0.1,0,0.2,0,0.2,0c0,0,0.1,0,0.1,0c0.1,0,0.1,0,0.2,0c0.1,0,0.1,0,0.2,0
		c0,0,0.1,0,0.1,0c0.1,0,0.2,0,0.2,0c0.1,0,0.1,0,0.2,0c0,0,0.1,0,0.1,0c0.8-0.2,1.5-0.6,2.2-1.2l6.7-6.7v10.2v0.3v18.3
		c0,2.3,1.6,4.1,3.6,4.1c2,0,3.6-1.9,3.6-4.1v-10h0c0.1-0.6,0.6-1.1,1.2-1.1c0.6,0,1.1,0.5,1.2,1.1h0v10c0,2.3,1.6,4.1,3.6,4.1
		c2,0,3.6-1.9,3.6-4.1V41.6v-0.3V23.7C58.7,19.8,55.6,16.6,51.7,16.6z"/>
	<circle class="st0" cx="50.2" cy="7.6" r="7.6"/>
</g>
</svg>
