<?xml version="1.0" encoding="utf-8"?>
<!-- Generator: Adobe Illustrator 21.0.0, SVG Export Plug-In . SVG Version: 6.00 Build 0)  -->
<svg version="1.1" id="Layer_1" xmlns="http://www.w3.org/2000/svg" xmlns:xlink="http://www.w3.org/1999/xlink" x="0px" y="0px"
	 width="64px" height="64px" viewBox="0 0 64 64" style="enable-background:new 0 0 64 64;" xml:space="preserve">
<style type="text/css">
	.st0{fill:#fa6405;}
</style>
<g>
	<path class="st0" d="M64,16.1V8C64,5.8,62.2,4,60.1,4H3.9C1.8,4,0,5.8,0,8v8.1H64z"/>
	<path class="st0" d="M4,20.2V56C4,58.2,5.8,60,8,60H56c2.2,0,3.9-1.8,3.9-3.9V20.2H4z M44.1,32.1c0,2.2-1.8,3.9-3.9,3.9H23.9
		c-2.2,0-3.9-1.8-3.9-3.9v-0.2c0-2.2,1.8-3.9,3.9-3.9h16.3c2.2,0,3.9,1.8,3.9,3.9V32.1z"/>
</g>
</svg>
