<?xml version="1.0" encoding="utf-8"?>
<!-- Generator: Adobe Illustrator 21.0.0, SVG Export Plug-In . SVG Version: 6.00 Build 0)  -->
<svg version="1.1" id="Layer_1" xmlns="http://www.w3.org/2000/svg" xmlns:xlink="http://www.w3.org/1999/xlink" x="0px" y="0px"
	 width="64px" height="64px" viewBox="0 0 64 64" style="enable-background:new 0 0 64 64;" xml:space="preserve">
<style type="text/css">
	.st0{fill:#6FD8AD;}
</style>
<g>
	<path class="st0" d="M24.2,42.3c0-3,0.6-5.9,1.8-8.5c-1.3-0.6-2.6-1.2-4-1.5v-0.6c7.2-1.4,12.7-8,12.7-15.8V3.6H38V0H0v3.6h3.3
		v12.3c0,7.8,5.5,14.3,12.8,15.8v0.6c-7.2,1.4-12.8,8-12.8,15.8v12.3H0V64h38v-1.6C30,59.3,24.2,51.5,24.2,42.3z M8.6,16.6h20.9
		c-0.5,5.5-4.9,9.8-10.4,9.8C13.5,26.5,9,22.1,8.6,16.6z M8.9,60.3c1.2-4.6,5.3-8,10.1-8c4.9,0,8.9,3.4,10.1,8H8.9z"/>
	<g>
		<path class="st0" d="M49.3,34h-5.4v7.4h5.4c1.9,0,3.5-1.6,3.5-3.5v-0.4C52.8,35.6,51.3,34,49.3,34z"/>
		<path class="st0" d="M45.8,24.2c-10,0-18.2,8.1-18.2,18.2s8.1,18.2,18.2,18.2c10,0,18.2-8.1,18.2-18.2S55.9,24.2,45.8,24.2z
			 M56.6,37.9c0,4-3.2,7.2-7.2,7.2h-5.4v2.3h5.8c1,0,1.9,0.8,1.9,1.9c0,1-0.8,1.9-1.9,1.9h-5.8v2.3c0,1-0.8,1.9-1.9,1.9
			s-1.9-0.8-1.9-1.9v-2.3h-2c-1,0-1.9-0.8-1.9-1.9c0-1,0.8-1.9,1.9-1.9h2v-2.3h-2c-1,0-1.9-0.8-1.9-1.9c0-1,0.8-1.9,1.9-1.9h2v-9.3
			c0-1,0.8-1.9,1.9-1.9h7.3c4,0,7.2,3.2,7.2,7.2V37.9z"/>
	</g>
</g>
</svg>
