<svg width="52" height="51" viewBox="0 0 52 51" fill="none" xmlns="http://www.w3.org/2000/svg">
<path d="M19.763 12.7264L1.31093 0.145509C1.05344 -0.0289466 0.721307 -0.048237 0.446204 0.0968631C0.171939 0.241963 0 0.527131 0 0.838299V26.0002C0 26.3113 0.17194 26.5965 0.447043 26.7416C0.569498 26.807 0.704533 26.8389 0.838729 26.8389C1.00396 26.8389 1.16919 26.7894 1.31093 26.693L19.763 14.112C19.9919 13.956 20.1295 13.6969 20.1295 13.4192C20.1295 13.1416 19.9919 12.8824 19.763 12.7264ZM1.67746 24.4125V2.42601L17.802 13.4192L1.67746 24.4125Z" transform="translate(19.312 12.2915)" fill="#999999"/>
<path d="M25.1619 0C11.2876 0 0 11.2876 0 25.1619C0 39.0361 11.2876 50.3237 25.1619 50.3237C39.0361 50.3237 50.3237 39.0361 50.3237 25.1619C50.3237 11.2876 39.0361 0 25.1619 0ZM25.1619 48.6463C12.2127 48.6463 1.67746 38.111 1.67746 25.1619C1.67746 12.2127 12.2127 1.67746 25.1619 1.67746C38.111 1.67746 48.6463 12.2127 48.6463 25.1619C48.6463 38.111 38.111 48.6463 25.1619 48.6463Z" transform="translate(0.859894 0.549072)" fill="#999999"/>
</svg>
