<svg width="52" height="51" viewBox="0 0 52 51" fill="none" xmlns="http://www.w3.org/2000/svg">
<path d="M7.69656 0.232246C5.92038 -0.359758 3.84837 0.232246 2.36819 1.41625C0.888007 2.60026 0 4.37644 0 6.44863C0 7.33663 0.592005 7.92881 1.48018 7.92881C2.36819 7.92881 2.96036 7.3368 2.96036 6.44863C2.96036 5.56062 3.25636 4.37644 4.14437 3.78444C5.03237 3.19244 5.92055 2.89643 7.10456 3.19243C8.58474 3.48844 9.47274 4.67262 9.76875 5.85662C10.0647 7.3368 9.76875 8.52081 8.58474 9.40899C6.21655 11.1852 5.03238 13.8494 5.03238 16.5135C5.03238 17.4016 5.62438 17.9937 6.51255 17.9937C7.40056 17.9937 7.99273 17.4017 7.69656 16.5135C7.69656 14.7374 8.88057 12.9612 10.3607 11.7772C12.4329 10.001 13.3209 7.6328 12.7289 5.26462C12.1368 2.60043 10.0647 0.82425 7.69656 0.232246Z" transform="translate(19.5094 12.1741)" fill="#fff"/>
<path d="M0.296 0.444131C-1.66291e-06 0.740132 0 1.33214 0 1.62814C0 1.92414 -1.66291e-06 2.22014 0.296 2.51615C0.592002 2.81215 1.18401 3.10815 1.48001 3.10815C1.77601 3.10815 2.36802 2.81215 2.36802 2.51615C2.66402 2.51615 2.96002 1.92414 2.96002 1.62814C2.96002 1.03614 2.66402 0.740132 2.36802 0.444131C1.77601 -0.148044 0.888004 -0.148044 0.296 0.444131Z" transform="translate(24.5417 35.9404)" fill="#fff"/>
<path d="M25.1619 0C11.2488 0 0 11.2488 0 25.1619C0 39.075 11.2488 50.3237 25.1619 50.3237C39.075 50.3237 50.3237 39.075 50.3237 25.1619C50.3237 11.2488 39.075 0 25.1619 0ZM25.1619 47.3635C13.0249 47.3635 2.96019 37.2988 2.96019 25.1619C2.96019 13.0249 13.0249 2.96019 25.1619 2.96019C37.2988 2.96019 47.3635 13.0249 47.3635 25.1619C47.3635 37.2988 37.2988 47.3635 25.1619 47.3635Z" transform="translate(0.859894 0.56543)" fill="#fff"/>
</svg>
