<?xml version="1.0" encoding="utf-8"?>
<!-- Generator: Adobe Illustrator 14.0.0, SVG Export Plug-In . SVG Version: 6.00 Build 43363)  -->
<!DOCTYPE svg PUBLIC "-//W3C//DTD SVG 1.1//EN" "http://www.w3.org/Graphics/SVG/1.1/DTD/svg11.dtd">
<svg version="1.1" id="Layer_1" xmlns="http://www.w3.org/2000/svg" xmlns:xlink="http://www.w3.org/1999/xlink" x="0px" y="0px"
	 width="80px" height="80px" viewBox="0 0 80 80" enable-background="new 0 0 80 80" xml:space="preserve">
<g>
	<path fill="none" stroke="#545454" stroke-width="0.75" stroke-linecap="round" stroke-linejoin="round" d="M49.273,40
		c-2.417-3.431-5.68-5.541-9.273-5.541s-6.856,2.11-9.273,5.541c2.417,3.431,5.68,5.54,9.273,5.54c3.109,0,5.972-1.579,8.252-4.228"
		/>
	<circle fill="none" stroke="#545454" stroke-linecap="round" stroke-linejoin="round" cx="40" cy="40" r="3.521"/>
	<path fill="none" stroke="#545454" stroke-linecap="round" stroke-linejoin="round" d="M38.42,40c0-0.872,0.707-1.58,1.581-1.58"/>
</g>
</svg>
