<?xml version="1.0" encoding="utf-8"?>
<!-- Generator: Adobe Illustrator 14.0.0, SVG Export Plug-In . SVG Version: 6.00 Build 43363)  -->
<!DOCTYPE svg PUBLIC "-//W3C//DTD SVG 1.1//EN" "http://www.w3.org/Graphics/SVG/1.1/DTD/svg11.dtd">
<svg version="1.1" id="Layer_1" xmlns="http://www.w3.org/2000/svg" xmlns:xlink="http://www.w3.org/1999/xlink" x="0px" y="0px"
	 width="80px" height="80px" viewBox="0 0 80 80" enable-background="new 0 0 80 80" xml:space="preserve">
<g>
	<path fill="none" stroke="#B7B7B7" stroke-width="1.2195" stroke-linecap="round" stroke-linejoin="round" d="M56.87,54.565
		c0,1.268-1.037,2.305-2.305,2.305H25.435c-1.268,0-2.305-1.037-2.305-2.305V25.435c0-1.268,1.037-2.305,2.305-2.305h29.131
		c1.268,0,2.305,1.037,2.305,2.305V54.565z"/>
	<g>
		<path fill="none" stroke="#B7B7B7" stroke-width="1.382" stroke-linecap="round" stroke-linejoin="round" d="M42.132,36.173
			c-1.23-1.821-3.313-3.019-5.677-3.019c-3.781,0-6.846,3.065-6.846,6.846s3.064,6.846,6.846,6.846S43.301,43.78,43.301,40h-6.247"
			/>
		
			<line fill="none" stroke="#B7B7B7" stroke-width="1.382" stroke-linecap="round" stroke-linejoin="round" x1="46.04" y1="40" x2="52.091" y2="40"/>
		
			<line fill="none" stroke="#B7B7B7" stroke-width="1.382" stroke-linecap="round" stroke-linejoin="round" x1="49.065" y1="43.025" x2="49.065" y2="36.975"/>
	</g>
</g>
</svg>
