<?xml version="1.0" encoding="utf-8"?>
<!-- Generator: Adobe Illustrator 14.0.0, SVG Export Plug-In . SVG Version: 6.00 Build 43363)  -->
<!DOCTYPE svg PUBLIC "-//W3C//DTD SVG 1.1//EN" "http://www.w3.org/Graphics/SVG/1.1/DTD/svg11.dtd">
<svg version="1.1" id="Layer_1" xmlns="http://www.w3.org/2000/svg" xmlns:xlink="http://www.w3.org/1999/xlink" x="0px" y="0px"
	 width="80px" height="80px" viewBox="0 0 80 80" enable-background="new 0 0 80 80" xml:space="preserve">
<g>
	<path fill="none" stroke="#B7B7B7" stroke-width="1.2195" stroke-linecap="round" stroke-linejoin="round" d="M56.87,54.565
		c0,1.268-1.037,2.305-2.305,2.305H25.435c-1.268,0-2.305-1.037-2.305-2.305V25.435c0-1.268,1.037-2.305,2.305-2.305h29.131
		c1.268,0,2.305,1.037,2.305,2.305V54.565z"/>
	<g>
		<circle fill="none" stroke="#B7B7B7" stroke-width="1.382" cx="40" cy="34.288" r="4.814"/>
		<path fill="none" stroke="#B7B7B7" stroke-width="1.382" stroke-linecap="round" d="M33.439,40.849
			c3.623,3.623,9.498,3.623,13.121,0"/>
		<polyline fill="none" stroke="#B7B7B7" stroke-width="1.382" stroke-linecap="round" stroke-linejoin="round" points="
			34.116,49.829 40.001,43.945 45.884,49.829 		"/>
	</g>
</g>
</svg>
