<svg width="51" height="53" viewBox="0 0 51 53" fill="none" xmlns="http://www.w3.org/2000/svg">
<path d="M50.3118 11.3648C50.3118 10.6412 49.7265 10.056 49.0029 10.056H4.44804L12.28 2.22402C12.7908 1.71324 12.7908 0.893864 12.28 0.383085C11.7692 -0.127695 10.9498 -0.127695 10.4391 0.383085L0.383085 10.4391C-0.127695 10.9498 -0.127695 11.7692 0.383085 12.28L10.4391 22.336C10.6944 22.5913 11.0243 22.719 11.3648 22.719C11.7054 22.719 12.0352 22.5913 12.2906 22.336C12.8014 21.8252 12.8014 21.0058 12.2906 20.495L4.45868 12.6631H49.0242C49.7265 12.6631 50.3118 12.0884 50.3118 11.3648Z" transform="translate(0.531708 30.0366)" fill="#999999"/>
<path d="M49.9393 10.4284L39.8834 0.383085C39.3726 -0.127695 38.5532 -0.127695 38.0424 0.383085C37.5316 0.893864 37.5316 1.71324 38.0424 2.22402L45.8744 10.056H1.30887C0.585268 10.056 0 10.6412 0 11.3648C0 12.0884 0.585268 12.6737 1.30887 12.6737H45.8744L38.0424 20.4844C37.5316 20.9952 37.5316 21.8145 38.0424 22.3253C38.2978 22.5807 38.6277 22.7084 38.9682 22.7084C39.3087 22.7084 39.6386 22.5807 39.894 22.3253L49.95 12.2693C50.4501 11.7692 50.4501 10.9392 49.9393 10.4284Z" transform="translate(0.521057 0.69873)" fill="#999999"/>
</svg>
