<svg width="23" height="39" viewBox="0 0 23 39" fill="none" xmlns="http://www.w3.org/2000/svg">
<path d="M38.6104 18.8114L20.3985 0.395328C20.1383 0.131915 19.8389 0 19.5003 0C19.1616 0 18.8617 0.131915 18.6014 0.395328L0.39092 18.8114C0.130033 19.0752 0 19.378 0 19.7206C0 20.063 0.130443 20.3661 0.39092 20.6294L2.34442 22.6048C2.6049 22.8682 2.90466 22.9999 3.24329 22.9999C3.58193 22.9999 3.88169 22.8682 4.14216 22.6048L19.5003 7.07381L34.8589 22.6058C35.1193 22.8692 35.4192 23 35.7573 23C36.0964 23 36.3962 22.8684 36.6565 22.6058L38.6103 20.6296C38.8707 20.3663 39 20.063 39 19.7207C39.0001 19.378 38.8708 19.0748 38.6104 18.8114Z" transform="translate(23) rotate(90)" fill="#fa6405"/>
</svg>
