<?xml version="1.0" encoding="utf-8"?>
<!-- Generator: Adobe Illustrator 21.0.0, SVG Export Plug-In . SVG Version: 6.00 Build 0)  -->
<svg version="1.1" id="Layer_1" xmlns="http://www.w3.org/2000/svg" xmlns:xlink="http://www.w3.org/1999/xlink" x="0px" y="0px"
	 width="11px" height="16px" viewBox="0 0 11 16" style="enable-background:new 0 0 11 16;" xml:space="preserve">
<style type="text/css">
	.st0{fill:#FA6405;}
</style>
<path class="st0" d="M0.4,8c0-2.6,0.4-4.5,1.3-5.7s2.2-1.9,3.8-1.9c1.8,0,3.1,0.6,3.9,1.9c0.8,1.2,1.2,3.2,1.2,5.8
	c0,2.6-0.4,4.5-1.3,5.8s-2.2,1.9-3.8,1.9c-1.8,0-3-0.7-3.9-2C0.8,12.3,0.4,10.4,0.4,8z M3.1,8c0,1.7,0.2,3,0.6,4
	c0.4,0.9,1,1.4,1.8,1.4c0.8,0,1.4-0.4,1.8-1.3C7.7,11.2,7.9,9.8,7.9,8c0-1.7-0.2-3-0.5-3.9C7,3.1,6.4,2.7,5.5,2.7
	C4.6,2.7,4,3.1,3.7,4C3.3,4.8,3.1,6.2,3.1,8z"/>
</svg>
