<?xml version="1.0" encoding="utf-8"?>
<!-- Generator: Adobe Illustrator 14.0.0, SVG Export Plug-In . SVG Version: 6.00 Build 43363)  -->
<!DOCTYPE svg PUBLIC "-//W3C//DTD SVG 1.1//EN" "http://www.w3.org/Graphics/SVG/1.1/DTD/svg11.dtd">
<svg version="1.1" id="Layer_1" xmlns="http://www.w3.org/2000/svg" xmlns:xlink="http://www.w3.org/1999/xlink" x="0px" y="0px"
	 width="80px" height="80px" viewBox="0 0 80 80" enable-background="new 0 0 80 80" xml:space="preserve">
<g>
	<g>
		<path fill="#9B9B9B" d="M21.151,20.165h8.353v2.456h-5.596v3.281H29v2.456h-5.092v3.441h5.696v2.456h-8.453V20.165z"/>
		<path fill="#9B9B9B" d="M31.858,34.253V20.165h2.757v11.633h3.321V20.165h2.757v11.633h3.321V20.165h2.758v11.633h1.852v4.971
			H46.69l-0.301-2.516H31.858z"/>
		<path fill="#9B9B9B" d="M50.396,20.165h8.352v2.456h-5.596v3.281h5.092v2.456h-5.092v3.441h5.697v2.456h-8.453V20.165z
			 M50.837,18.192c0-0.349,0.121-0.631,0.363-0.846c0.24-0.214,0.631-0.322,1.166-0.322c0.523,0,0.906,0.107,1.148,0.322
			c0.24,0.215,0.361,0.497,0.361,0.846c0,0.349-0.121,0.627-0.361,0.835c-0.242,0.208-0.625,0.312-1.148,0.312
			c-0.535,0-0.926-0.104-1.166-0.312C50.958,18.819,50.837,18.541,50.837,18.192z M55.146,18.192c0-0.349,0.119-0.631,0.361-0.846
			c0.242-0.214,0.623-0.322,1.146-0.322c0.537,0,0.926,0.107,1.168,0.322c0.242,0.215,0.363,0.497,0.363,0.846
			c0,0.349-0.121,0.627-0.363,0.835c-0.242,0.208-0.631,0.312-1.168,0.312c-0.523,0-0.904-0.104-1.146-0.312
			C55.265,18.819,55.146,18.541,55.146,18.192z"/>
	</g>
	<g>
		<path fill="#808080" d="M21.402,56.768c0.207-0.012,0.425-0.027,0.653-0.045c0.228-0.018,0.51-0.025,0.848-0.025
			c0.586,0,1.006,0.09,1.261,0.27c0.255,0.182,0.382,0.455,0.382,0.822c0,0.207-0.061,0.41-0.182,0.607
			c-0.122,0.199-0.321,0.346-0.6,0.439v0.035c0.35,0.066,0.595,0.188,0.737,0.365c0.142,0.178,0.213,0.414,0.213,0.711
			c0,0.461-0.166,0.795-0.497,1.002c-0.332,0.207-0.829,0.311-1.492,0.311c-0.249,0-0.479-0.006-0.692-0.021
			s-0.424-0.031-0.631-0.049V56.768z M22.983,58.633c0.106,0,0.21-0.018,0.311-0.055c0.101-0.035,0.191-0.084,0.271-0.146
			c0.08-0.061,0.146-0.135,0.195-0.217c0.051-0.082,0.076-0.172,0.076-0.266c0-0.238-0.071-0.402-0.214-0.494
			c-0.142-0.092-0.391-0.137-0.745-0.137c-0.189,0-0.339,0.002-0.449,0.008c-0.109,0.006-0.214,0.012-0.314,0.018v1.289H22.983z
			 M22.113,60.604c0.112,0.012,0.223,0.021,0.333,0.027c0.109,0.006,0.238,0.008,0.386,0.008c0.396,0,0.691-0.057,0.884-0.168
			c0.192-0.113,0.288-0.305,0.288-0.578c0-0.213-0.081-0.385-0.244-0.52c-0.162-0.133-0.451-0.199-0.865-0.199h-0.781V60.604z"/>
		<path fill="#808080" d="M25.54,57.088c0.226-0.137,0.487-0.238,0.786-0.303s0.611-0.098,0.938-0.098
			c0.308,0,0.555,0.041,0.741,0.125c0.187,0.082,0.328,0.189,0.426,0.324c0.098,0.133,0.163,0.279,0.195,0.439
			c0.033,0.158,0.049,0.318,0.049,0.479c0,0.355-0.009,0.701-0.026,1.039s-0.026,0.658-0.026,0.959c0,0.219,0.009,0.426,0.026,0.621
			s0.05,0.377,0.098,0.543h-0.523l-0.187-0.623h-0.045c-0.053,0.084-0.12,0.166-0.199,0.244c-0.08,0.08-0.177,0.152-0.289,0.215
			c-0.112,0.061-0.243,0.113-0.391,0.154c-0.148,0.041-0.316,0.063-0.506,0.063s-0.366-0.029-0.528-0.088
			c-0.163-0.061-0.304-0.145-0.422-0.254c-0.119-0.109-0.212-0.242-0.28-0.395c-0.068-0.154-0.102-0.33-0.102-0.525
			c0-0.26,0.053-0.477,0.159-0.652c0.106-0.174,0.256-0.313,0.449-0.416c0.191-0.104,0.423-0.178,0.692-0.223
			s0.566-0.066,0.893-0.066c0.082,0,0.164,0,0.244,0s0.161,0.006,0.244,0.018c0.018-0.178,0.026-0.338,0.026-0.48
			c0-0.324-0.065-0.553-0.195-0.684c-0.13-0.129-0.367-0.195-0.71-0.195c-0.102,0-0.209,0.008-0.324,0.023
			c-0.116,0.016-0.234,0.037-0.355,0.064s-0.237,0.061-0.347,0.1s-0.205,0.084-0.288,0.133L25.54,57.088z M26.802,60.648
			c0.165,0,0.313-0.023,0.443-0.066c0.131-0.045,0.243-0.102,0.338-0.17s0.173-0.143,0.235-0.227
			c0.062-0.082,0.107-0.162,0.138-0.238v-0.738c-0.083-0.006-0.168-0.01-0.253-0.014c-0.086-0.002-0.171-0.004-0.254-0.004
			c-0.184,0-0.362,0.01-0.537,0.031s-0.328,0.059-0.462,0.115c-0.133,0.057-0.239,0.133-0.319,0.23s-0.12,0.221-0.12,0.369
			c0,0.207,0.074,0.377,0.223,0.51C26.381,60.582,26.57,60.648,26.802,60.648z"/>
		<path fill="#808080" d="M29.794,56.758h0.488l0.134,0.533h0.035c0.136-0.207,0.313-0.365,0.528-0.475s0.463-0.164,0.741-0.164
			c0.593,0,1.033,0.174,1.323,0.523s0.436,0.92,0.436,1.715c0,0.371-0.049,0.709-0.146,1.008s-0.235,0.551-0.413,0.758
			s-0.393,0.367-0.644,0.48c-0.252,0.111-0.531,0.168-0.84,0.168c-0.219,0-0.392-0.014-0.52-0.039
			c-0.127-0.027-0.265-0.072-0.412-0.139v1.848h-0.711V56.758z M31.588,57.273c-0.302,0-0.54,0.078-0.715,0.236
			c-0.175,0.156-0.298,0.395-0.368,0.715v2.201c0.106,0.084,0.228,0.146,0.363,0.191c0.137,0.045,0.317,0.066,0.542,0.066
			c0.408,0,0.732-0.152,0.973-0.457c0.239-0.305,0.359-0.754,0.359-1.346c0-0.242-0.021-0.463-0.063-0.662
			c-0.041-0.197-0.107-0.367-0.199-0.506s-0.21-0.246-0.355-0.324C31.98,57.313,31.801,57.273,31.588,57.273z"/>
		<path fill="#808080" d="M37.146,58.57l0.027-0.551h-0.027l-0.364,0.568l-1.998,2.611h-0.408v-4.441h0.711v2.709L35.06,59.99h0.036
			l0.346-0.551l1.998-2.682h0.418v4.441h-0.711V58.57z"/>
		<path fill="#808080" d="M38.931,57.088c0.226-0.137,0.487-0.238,0.786-0.303s0.611-0.098,0.938-0.098
			c0.308,0,0.555,0.041,0.741,0.125c0.187,0.082,0.328,0.189,0.426,0.324c0.098,0.133,0.163,0.279,0.195,0.439
			c0.033,0.158,0.049,0.318,0.049,0.479c0,0.355-0.009,0.701-0.026,1.039s-0.026,0.658-0.026,0.959c0,0.219,0.009,0.426,0.026,0.621
			s0.05,0.377,0.098,0.543h-0.523l-0.187-0.623h-0.045c-0.053,0.084-0.12,0.166-0.199,0.244c-0.08,0.08-0.177,0.152-0.289,0.215
			c-0.112,0.061-0.243,0.113-0.391,0.154c-0.148,0.041-0.316,0.063-0.506,0.063s-0.366-0.029-0.528-0.088
			c-0.163-0.061-0.304-0.145-0.422-0.254c-0.119-0.109-0.212-0.242-0.28-0.395c-0.068-0.154-0.102-0.33-0.102-0.525
			c0-0.26,0.053-0.477,0.159-0.652c0.106-0.174,0.256-0.313,0.449-0.416c0.191-0.104,0.423-0.178,0.692-0.223
			s0.566-0.066,0.893-0.066c0.082,0,0.164,0,0.244,0s0.161,0.006,0.244,0.018c0.018-0.178,0.026-0.338,0.026-0.48
			c0-0.324-0.065-0.553-0.195-0.684c-0.13-0.129-0.367-0.195-0.71-0.195c-0.102,0-0.209,0.008-0.324,0.023
			c-0.116,0.016-0.234,0.037-0.355,0.064s-0.237,0.061-0.347,0.1s-0.205,0.084-0.288,0.133L38.931,57.088z M40.192,60.648
			c0.165,0,0.313-0.023,0.443-0.066c0.131-0.045,0.243-0.102,0.338-0.17s0.173-0.143,0.235-0.227
			c0.062-0.082,0.107-0.162,0.138-0.238v-0.738c-0.083-0.006-0.168-0.01-0.253-0.014c-0.086-0.002-0.171-0.004-0.254-0.004
			c-0.184,0-0.362,0.01-0.537,0.031s-0.328,0.059-0.462,0.115c-0.133,0.057-0.239,0.133-0.319,0.23s-0.12,0.221-0.12,0.369
			c0,0.207,0.074,0.377,0.223,0.51C39.771,60.582,39.961,60.648,40.192,60.648z"/>
		<path fill="#808080" d="M45.901,59.236h-2.006v1.963h-0.711v-4.441h0.711v1.857h2.006v-1.857h0.711v4.441h-0.711V59.236z"/>
		<path fill="#808080" d="M50.581,57.381h-1.385v3.818h-0.711v-3.818h-1.385v-0.623h3.48V57.381z"/>
		<path fill="#808080" d="M50.671,58.979c0-0.752,0.166-1.328,0.5-1.727c0.336-0.4,0.816-0.6,1.443-0.6
			c0.332,0,0.621,0.055,0.867,0.164c0.244,0.109,0.447,0.266,0.607,0.471c0.16,0.203,0.277,0.449,0.355,0.736
			c0.076,0.287,0.115,0.605,0.115,0.955c0,0.752-0.168,1.328-0.502,1.727c-0.334,0.4-0.816,0.6-1.443,0.6
			c-0.332,0-0.619-0.055-0.865-0.164s-0.449-0.266-0.607-0.471c-0.16-0.203-0.279-0.449-0.355-0.736
			C50.708,59.646,50.671,59.328,50.671,58.979z M51.407,58.979c0,0.225,0.021,0.441,0.066,0.648s0.113,0.387,0.209,0.541
			c0.094,0.154,0.219,0.279,0.373,0.373c0.154,0.096,0.34,0.143,0.559,0.143c0.805,0.006,1.209-0.563,1.209-1.705
			c0-0.23-0.023-0.449-0.068-0.656c-0.043-0.209-0.113-0.389-0.207-0.543c-0.096-0.154-0.221-0.275-0.373-0.367
			c-0.154-0.092-0.342-0.139-0.561-0.139C51.81,57.268,51.407,57.836,51.407,58.979z"/>
		<path fill="#808080" d="M55.456,56.768c0.207-0.012,0.426-0.027,0.654-0.045c0.227-0.018,0.51-0.025,0.848-0.025
			c0.586,0,1.006,0.09,1.26,0.27c0.256,0.182,0.383,0.455,0.383,0.822c0,0.207-0.061,0.41-0.182,0.607
			c-0.123,0.199-0.322,0.346-0.6,0.439v0.035c0.35,0.066,0.594,0.188,0.736,0.365s0.213,0.414,0.213,0.711
			c0,0.461-0.166,0.795-0.496,1.002c-0.332,0.207-0.83,0.311-1.492,0.311c-0.25,0-0.48-0.006-0.693-0.021s-0.424-0.031-0.631-0.049
			V56.768z M57.038,58.633c0.105,0,0.209-0.018,0.311-0.055c0.1-0.035,0.191-0.084,0.27-0.146c0.08-0.061,0.146-0.135,0.195-0.217
			c0.051-0.082,0.076-0.172,0.076-0.266c0-0.238-0.07-0.402-0.213-0.494s-0.391-0.137-0.746-0.137c-0.189,0-0.338,0.002-0.449,0.008
			c-0.109,0.006-0.213,0.012-0.314,0.018v1.289H57.038z M56.167,60.604c0.113,0.012,0.223,0.021,0.334,0.027
			c0.109,0.006,0.238,0.008,0.385,0.008c0.396,0,0.691-0.057,0.885-0.168c0.191-0.113,0.287-0.305,0.287-0.578
			c0-0.213-0.08-0.385-0.244-0.52c-0.162-0.133-0.451-0.199-0.865-0.199h-0.781V60.604z"/>
	</g>
	<g>
		<path fill="#FA6405" d="M30.649,50.746h2.922v-8.303l0.315-1.43l-1.009,1.24l-1.871,1.281l-1.156-1.576l4.793-3.867h1.535v12.654
			h2.858v2.313h-8.388V50.746z"/>
		<path fill="#FA6405" d="M51.019,48.959h-2.313v4.1h-2.543v-4.1h-6.369v-1.555l6.664-9.166h2.248v8.535h2.313V48.959z
			 M46.163,43.557l0.189-1.766h-0.084l-0.715,1.514l-2.187,2.838l-1.051,0.799l1.346-0.168h2.501V43.557z"/>
	</g>
</g>
</svg>
