<?xml version="1.0" encoding="utf-8"?>
<!-- Generator: Adobe Illustrator 14.0.0, SVG Export Plug-In . SVG Version: 6.00 Build 43363)  -->
<!DOCTYPE svg PUBLIC "-//W3C//DTD SVG 1.1//EN" "http://www.w3.org/Graphics/SVG/1.1/DTD/svg11.dtd">
<svg version="1.1" id="Layer_1" xmlns="http://www.w3.org/2000/svg" xmlns:xlink="http://www.w3.org/1999/xlink" x="0px" y="0px"
	 width="80px" height="80px" viewBox="0 0 80 80" enable-background="new 0 0 80 80" xml:space="preserve">
<g>
	<g>
		<path fill="#9B9B9B" d="M21.151,20.216h8.353v2.456h-5.596v3.281H29v2.456h-5.092v3.441h5.696v2.456h-8.453V20.216z"/>
		<path fill="#9B9B9B" d="M31.858,34.305V20.216h2.757V31.85h3.321V20.216h2.757V31.85h3.321V20.216h2.758V31.85h1.852v4.971H46.69
			l-0.301-2.516H31.858z"/>
		<path fill="#9B9B9B" d="M50.396,20.216h8.352v2.456h-5.596v3.281h5.092v2.456h-5.092v3.441h5.697v2.456h-8.453V20.216z
			 M50.837,18.244c0-0.349,0.121-0.631,0.363-0.846c0.24-0.214,0.631-0.322,1.166-0.322c0.523,0,0.906,0.107,1.148,0.322
			c0.24,0.215,0.361,0.497,0.361,0.846c0,0.349-0.121,0.627-0.361,0.835c-0.242,0.208-0.625,0.312-1.148,0.312
			c-0.535,0-0.926-0.104-1.166-0.312C50.958,18.871,50.837,18.593,50.837,18.244z M55.146,18.244c0-0.349,0.119-0.631,0.361-0.846
			c0.242-0.214,0.623-0.322,1.146-0.322c0.537,0,0.926,0.107,1.168,0.322c0.242,0.215,0.363,0.497,0.363,0.846
			c0,0.349-0.121,0.627-0.363,0.835c-0.242,0.208-0.631,0.312-1.168,0.312c-0.523,0-0.904-0.104-1.146-0.312
			C55.265,18.871,55.146,18.593,55.146,18.244z"/>
	</g>
	<g>
		<path fill="#808080" d="M21.304,55.605c0.244-0.014,0.5-0.031,0.77-0.053c0.269-0.02,0.602-0.031,0.999-0.031
			c0.691,0,1.187,0.107,1.487,0.32c0.3,0.213,0.45,0.535,0.45,0.969c0,0.244-0.072,0.482-0.215,0.717
			c-0.144,0.234-0.379,0.406-0.707,0.518v0.043c0.412,0.076,0.702,0.219,0.869,0.428c0.168,0.211,0.252,0.49,0.252,0.838
			c0,0.545-0.196,0.939-0.587,1.184s-0.978,0.367-1.759,0.367c-0.293,0-0.565-0.01-0.816-0.027
			c-0.252-0.018-0.499-0.037-0.743-0.057V55.605z M23.167,57.805c0.126,0,0.248-0.021,0.366-0.063
			c0.119-0.043,0.226-0.1,0.319-0.174c0.095-0.072,0.171-0.158,0.23-0.256s0.089-0.203,0.089-0.314c0-0.279-0.084-0.473-0.251-0.58
			c-0.168-0.109-0.461-0.162-0.88-0.162c-0.224,0-0.399,0.002-0.528,0.01c-0.13,0.008-0.253,0.014-0.372,0.021v1.518H23.167z
			 M22.141,60.129c0.133,0.014,0.264,0.025,0.393,0.031c0.129,0.008,0.281,0.01,0.456,0.01c0.467,0,0.814-0.066,1.041-0.197
			c0.228-0.133,0.341-0.359,0.341-0.682c0-0.252-0.097-0.455-0.288-0.611c-0.192-0.158-0.532-0.236-1.021-0.236h-0.922V60.129z"/>
		<path fill="#808080" d="M26.706,55.982c0.265-0.16,0.574-0.279,0.927-0.355c0.352-0.076,0.72-0.115,1.104-0.115
			c0.362,0,0.654,0.049,0.874,0.146s0.388,0.225,0.502,0.383c0.115,0.156,0.192,0.33,0.23,0.518
			c0.039,0.188,0.058,0.377,0.058,0.564c0,0.42-0.01,0.828-0.031,1.227c-0.021,0.396-0.031,0.773-0.031,1.131
			c0,0.258,0.011,0.502,0.031,0.732c0.021,0.23,0.06,0.443,0.115,0.639h-0.617l-0.221-0.732h-0.052
			c-0.063,0.098-0.142,0.193-0.235,0.287c-0.095,0.094-0.208,0.178-0.341,0.252c-0.133,0.072-0.286,0.135-0.461,0.182
			c-0.174,0.049-0.373,0.074-0.597,0.074s-0.431-0.035-0.623-0.105c-0.191-0.068-0.357-0.168-0.497-0.297s-0.249-0.285-0.33-0.467
			c-0.08-0.182-0.12-0.387-0.12-0.617c0-0.307,0.063-0.564,0.188-0.77c0.126-0.207,0.302-0.371,0.529-0.492
			c0.227-0.123,0.498-0.209,0.816-0.262c0.317-0.053,0.668-0.078,1.052-0.078c0.098,0,0.194,0,0.288,0
			c0.095,0,0.19,0.006,0.288,0.02c0.021-0.209,0.031-0.396,0.031-0.564c0-0.385-0.077-0.652-0.23-0.807
			c-0.153-0.152-0.433-0.23-0.837-0.23c-0.119,0-0.246,0.01-0.383,0.027c-0.136,0.018-0.275,0.043-0.419,0.076
			c-0.143,0.031-0.279,0.07-0.408,0.117s-0.242,0.1-0.34,0.156L26.706,55.982z M28.192,60.182c0.195,0,0.37-0.027,0.523-0.078
			c0.153-0.053,0.286-0.119,0.398-0.199c0.111-0.08,0.204-0.17,0.277-0.268s0.127-0.191,0.162-0.283v-0.869
			c-0.098-0.006-0.197-0.012-0.299-0.016c-0.101-0.002-0.2-0.004-0.298-0.004c-0.217,0-0.428,0.012-0.634,0.035
			c-0.206,0.025-0.388,0.07-0.544,0.137c-0.157,0.066-0.283,0.156-0.377,0.271c-0.095,0.115-0.142,0.262-0.142,0.436
			c0,0.244,0.087,0.445,0.262,0.602C27.697,60.104,27.92,60.182,28.192,60.182z"/>
		<path fill="#808080" d="M32.244,55.596h0.575l0.157,0.627h0.042c0.16-0.244,0.368-0.43,0.623-0.559s0.546-0.193,0.874-0.193
			c0.698,0,1.218,0.205,1.56,0.617c0.343,0.412,0.514,1.086,0.514,2.02c0,0.441-0.058,0.836-0.173,1.189
			c-0.115,0.352-0.277,0.65-0.487,0.895c-0.209,0.244-0.462,0.434-0.759,0.566c-0.297,0.131-0.627,0.197-0.989,0.197
			c-0.259,0-0.463-0.016-0.612-0.047c-0.15-0.031-0.313-0.084-0.487-0.162v2.178h-0.837V55.596z M34.358,56.203
			c-0.355,0-0.637,0.092-0.843,0.277s-0.351,0.465-0.435,0.842v2.598c0.126,0.098,0.269,0.172,0.43,0.225
			c0.16,0.053,0.373,0.078,0.639,0.078c0.481,0,0.863-0.18,1.146-0.539c0.282-0.359,0.424-0.889,0.424-1.586
			c0-0.285-0.024-0.547-0.073-0.779c-0.049-0.234-0.128-0.434-0.235-0.598c-0.108-0.164-0.248-0.291-0.419-0.383
			C34.821,56.248,34.61,56.203,34.358,56.203z"/>
		<path fill="#808080" d="M41.437,57.73l0.031-0.648h-0.031l-0.43,0.67l-2.355,3.078H38.17v-5.234h0.837v3.193l-0.031,0.617h0.042
			l0.408-0.648l2.355-3.162h0.492v5.234h-0.837V57.73z"/>
		<path fill="#808080" d="M44.064,55.982c0.265-0.16,0.574-0.279,0.927-0.355c0.352-0.076,0.72-0.115,1.104-0.115
			c0.362,0,0.654,0.049,0.874,0.146s0.388,0.225,0.502,0.383c0.115,0.156,0.192,0.33,0.23,0.518
			c0.039,0.188,0.058,0.377,0.058,0.564c0,0.42-0.01,0.828-0.031,1.227c-0.021,0.396-0.031,0.773-0.031,1.131
			c0,0.258,0.011,0.502,0.031,0.732c0.021,0.23,0.06,0.443,0.115,0.639h-0.617l-0.221-0.732h-0.052
			c-0.063,0.098-0.142,0.193-0.235,0.287c-0.095,0.094-0.208,0.178-0.341,0.252c-0.133,0.072-0.286,0.135-0.461,0.182
			c-0.174,0.049-0.373,0.074-0.597,0.074s-0.431-0.035-0.623-0.105c-0.191-0.068-0.357-0.168-0.497-0.297s-0.249-0.285-0.33-0.467
			c-0.08-0.182-0.12-0.387-0.12-0.617c0-0.307,0.063-0.564,0.188-0.77c0.126-0.207,0.302-0.371,0.529-0.492
			c0.227-0.123,0.498-0.209,0.816-0.262c0.317-0.053,0.668-0.078,1.052-0.078c0.098,0,0.194,0,0.288,0
			c0.095,0,0.19,0.006,0.288,0.02c0.021-0.209,0.031-0.396,0.031-0.564c0-0.385-0.077-0.652-0.23-0.807
			c-0.153-0.152-0.433-0.23-0.837-0.23c-0.119,0-0.246,0.01-0.383,0.027c-0.136,0.018-0.275,0.043-0.419,0.076
			c-0.143,0.031-0.279,0.07-0.408,0.117s-0.242,0.1-0.34,0.156L44.064,55.982z M45.551,60.182c0.195,0,0.37-0.027,0.523-0.078
			c0.153-0.053,0.286-0.119,0.398-0.199c0.111-0.08,0.204-0.17,0.277-0.268s0.127-0.191,0.162-0.283v-0.869
			c-0.098-0.006-0.197-0.012-0.299-0.016c-0.101-0.002-0.2-0.004-0.298-0.004c-0.217,0-0.428,0.012-0.634,0.035
			c-0.206,0.025-0.388,0.07-0.544,0.137c-0.157,0.066-0.283,0.156-0.377,0.271c-0.095,0.115-0.142,0.262-0.142,0.436
			c0,0.244,0.087,0.445,0.262,0.602C45.056,60.104,45.278,60.182,45.551,60.182z"/>
		<path fill="#808080" d="M52.807,58.516H50.44v2.314h-0.837v-5.234h0.837v2.188h2.366v-2.188h0.838v5.234h-0.838V58.516z"/>
		<path fill="#808080" d="M58.848,56.328h-1.634v4.502h-0.837v-4.502h-1.634v-0.732h4.104V56.328z"/>
	</g>
	<g>
		<path fill="#FA6405" d="M36.083,50.48h2.922v-8.305l0.315-1.429l-1.009,1.241L36.44,43.27l-1.156-1.576l4.793-3.868h1.535V50.48
			h2.858v2.313h-8.388V50.48z"/>
	</g>
</g>
</svg>
