<?xml version="1.0" encoding="utf-8"?>
<!-- Generator: Adobe Illustrator 21.0.0, SVG Export Plug-In . SVG Version: 6.00 Build 0)  -->
<svg version="1.1" id="Layer_1" xmlns="http://www.w3.org/2000/svg" xmlns:xlink="http://www.w3.org/1999/xlink" x="0px" y="0px"
	 width="10px" height="16px" viewBox="0 0 10 16" style="enable-background:new 0 0 10 16;" xml:space="preserve">
<style type="text/css">
	.st0{fill:#FA6405;}
</style>
<g>
	<path class="st0" d="M0,5.2c0-0.7,0.1-1.4,0.3-2s0.5-1.1,0.9-1.5c0.4-0.4,0.9-0.8,1.5-1s1.3-0.4,2.1-0.4c1.6,0,2.8,0.5,3.7,1.4
		C9.5,2.7,10,4.1,10,5.9c0,1.6-0.2,3-0.6,4.2c-0.4,1.2-1,2.2-1.7,3c-0.7,0.8-1.5,1.4-2.4,1.8s-1.9,0.7-2.9,0.8l-0.6-2.1
		c0.8-0.1,1.5-0.3,2.1-0.6c0.6-0.3,1.1-0.6,1.6-1c0.4-0.4,0.8-0.9,1.1-1.4C6.8,10,6.9,9.4,7.1,8.8C6.7,9.2,6.4,9.4,6,9.6
		C5.6,9.7,5.1,9.8,4.4,9.8c-0.5,0-1.1-0.1-1.6-0.3C2.3,9.3,1.8,9,1.4,8.7C1,8.3,0.7,7.8,0.4,7.3C0.2,6.7,0,6,0,5.2z M2.7,5.1
		c0,0.8,0.2,1.4,0.7,1.8c0.4,0.4,1,0.6,1.7,0.6c0.6,0,1-0.1,1.4-0.3c0.4-0.2,0.6-0.4,0.8-0.7c0-0.3,0.1-0.6,0.1-0.8
		c0-0.4-0.1-0.8-0.1-1.2S7,3.9,6.8,3.6C6.6,3.3,6.3,3,6,2.9C5.7,2.7,5.3,2.6,4.9,2.6c-0.7,0-1.2,0.2-1.6,0.7S2.7,4.3,2.7,5.1z"/>
</g>
</svg>
