<?xml version="1.0" encoding="utf-8"?>
<!-- Generator: Adobe Illustrator 14.0.0, SVG Export Plug-In . SVG Version: 6.00 Build 43363)  -->
<!DOCTYPE svg PUBLIC "-//W3C//DTD SVG 1.1//EN" "http://www.w3.org/Graphics/SVG/1.1/DTD/svg11.dtd">
<svg version="1.1" id="Layer_1" xmlns="http://www.w3.org/2000/svg" xmlns:xlink="http://www.w3.org/1999/xlink" x="0px" y="0px"
	 width="120px" height="45px" viewBox="0 0 120 45" enable-background="new 0 0 120 45" xml:space="preserve">
<g>
	<linearGradient id="SVGID_1_" gradientUnits="userSpaceOnUse" x1="26.6128" y1="28.4824" x2="26.6128" y2="42.0332">
		<stop  offset="0" style="stop-color:#FFDA4B"/>
		<stop  offset="1" style="stop-color:#FF9107"/>
	</linearGradient>
	<path fill="url(#SVGID_1_)" d="M26.376,28.754c0.13-0.362,0.341-0.362,0.471,0l1.413,3.955c0.129,0.362,0.55,0.668,0.936,0.68
		l4.197,0.12c0.385,0.012,0.45,0.213,0.146,0.448l-3.322,2.564c-0.305,0.235-0.465,0.73-0.357,1.1l1.18,4.028
		c0.107,0.369-0.063,0.494-0.382,0.277l-3.467-2.368c-0.318-0.217-0.838-0.217-1.156,0l-3.465,2.368
		c-0.318,0.217-0.489,0.092-0.381-0.277l1.181-4.028c0.108-0.369-0.052-0.864-0.356-1.1l-3.324-2.564
		c-0.305-0.235-0.239-0.437,0.146-0.448l4.195-0.12c0.386-0.012,0.806-0.317,0.936-0.68L26.376,28.754z"/>
	<linearGradient id="SVGID_2_" gradientUnits="userSpaceOnUse" x1="43.3071" y1="28.4824" x2="43.3071" y2="42.0332">
		<stop  offset="0" style="stop-color:#FFDA4B"/>
		<stop  offset="1" style="stop-color:#FF9107"/>
	</linearGradient>
	<path fill="url(#SVGID_2_)" d="M43.071,28.754c0.13-0.362,0.341-0.362,0.471,0l1.411,3.955c0.13,0.362,0.55,0.668,0.936,0.68
		l4.197,0.12c0.386,0.012,0.451,0.213,0.146,0.448l-3.324,2.564c-0.305,0.235-0.465,0.73-0.356,1.1l1.18,4.028
		c0.108,0.369-0.063,0.494-0.381,0.277l-3.466-2.368c-0.318-0.217-0.838-0.217-1.156,0l-3.466,2.368
		c-0.318,0.217-0.489,0.092-0.382-0.277l1.181-4.028c0.107-0.369-0.053-0.864-0.357-1.1l-3.322-2.564
		c-0.305-0.235-0.239-0.437,0.146-0.448l4.197-0.12c0.385-0.012,0.805-0.317,0.935-0.68L43.071,28.754z"/>
	<linearGradient id="SVGID_3_" gradientUnits="userSpaceOnUse" x1="59.9995" y1="28.4824" x2="59.9995" y2="42.0332">
		<stop  offset="0" style="stop-color:#FFDA4B"/>
		<stop  offset="1" style="stop-color:#FF9107"/>
	</linearGradient>
	<path fill="url(#SVGID_3_)" d="M59.765,28.754c0.13-0.362,0.341-0.362,0.471,0l1.411,3.955c0.13,0.362,0.55,0.668,0.936,0.68
		l4.197,0.12c0.385,0.012,0.45,0.213,0.146,0.448l-3.323,2.564c-0.305,0.235-0.465,0.73-0.356,1.1l1.182,4.028
		c0.108,0.369-0.063,0.494-0.381,0.277l-3.468-2.368c-0.318-0.217-0.838-0.217-1.156,0l-3.465,2.368
		c-0.318,0.217-0.489,0.092-0.382-0.277l1.18-4.028c0.107-0.369-0.053-0.864-0.357-1.1l-3.322-2.564
		c-0.305-0.235-0.239-0.437,0.146-0.448l4.197-0.12c0.386-0.012,0.806-0.317,0.936-0.68L59.765,28.754z"/>
	<linearGradient id="SVGID_4_" gradientUnits="userSpaceOnUse" x1="76.6934" y1="28.4824" x2="76.6934" y2="42.0332">
		<stop  offset="0" style="stop-color:#FFDA4B"/>
		<stop  offset="1" style="stop-color:#FF9107"/>
	</linearGradient>
	<path fill="url(#SVGID_4_)" d="M76.458,28.754c0.13-0.362,0.341-0.362,0.471,0l1.413,3.955c0.129,0.362,0.55,0.668,0.936,0.68
		l4.195,0.12c0.385,0.012,0.45,0.213,0.146,0.448l-3.323,2.564c-0.305,0.235-0.465,0.73-0.356,1.1l1.18,4.028
		c0.108,0.369-0.063,0.494-0.381,0.277l-3.466-2.368c-0.318-0.217-0.838-0.217-1.156,0l-3.466,2.368
		c-0.318,0.217-0.489,0.092-0.381-0.277l1.18-4.028c0.108-0.369-0.052-0.864-0.356-1.1l-3.324-2.564
		c-0.305-0.235-0.239-0.437,0.146-0.448l4.197-0.12c0.386-0.012,0.806-0.317,0.936-0.68L76.458,28.754z"/>
	<linearGradient id="SVGID_5_" gradientUnits="userSpaceOnUse" x1="93.3867" y1="28.4824" x2="93.3867" y2="42.0332">
		<stop  offset="0" style="stop-color:#FFDA4B"/>
		<stop  offset="1" style="stop-color:#FF9107"/>
	</linearGradient>
	<path fill="url(#SVGID_5_)" d="M93.152,28.754c0.129-0.362,0.342-0.362,0.471,0l1.412,3.955c0.129,0.362,0.55,0.668,0.936,0.68
		l4.197,0.12c0.385,0.012,0.45,0.213,0.145,0.448l-3.324,2.564c-0.305,0.235-0.465,0.73-0.356,1.1l1.181,4.028
		c0.108,0.369-0.063,0.494-0.381,0.277l-3.466-2.368c-0.318-0.217-0.838-0.217-1.156,0l-3.466,2.368
		c-0.318,0.217-0.489,0.092-0.381-0.277l1.18-4.028c0.107-0.369-0.053-0.864-0.357-1.1l-3.324-2.564
		c-0.305-0.235-0.239-0.437,0.146-0.448l4.197-0.12c0.386-0.012,0.807-0.317,0.936-0.68L93.152,28.754z"/>
	<g>
		<g>
			<path d="M74.798,17.848h-0.965v-6.25l-2.017,4.254h-0.574l-2.003-4.254v6.25h-0.9v-7.254h1.314l1.935,4.039l1.869-4.039h1.341
				V17.848z"/>
			<path d="M80.404,17.848h-0.912v-0.579c-0.08,0.055-0.191,0.132-0.328,0.231c-0.138,0.099-0.271,0.178-0.402,0.235
				c-0.152,0.075-0.328,0.137-0.526,0.188c-0.197,0.052-0.43,0.076-0.696,0.076c-0.49,0-0.906-0.162-1.246-0.487
				c-0.343-0.325-0.514-0.739-0.514-1.242c0-0.413,0.089-0.746,0.267-1.001c0.177-0.256,0.429-0.455,0.757-0.602
				c0.332-0.147,0.729-0.245,1.195-0.298c0.463-0.052,0.962-0.091,1.494-0.117v-0.141c0-0.208-0.035-0.38-0.108-0.517
				c-0.074-0.137-0.178-0.242-0.314-0.321c-0.129-0.075-0.286-0.126-0.469-0.151c-0.183-0.026-0.372-0.039-0.569-0.039
				c-0.24,0-0.51,0.032-0.804,0.095c-0.296,0.063-0.602,0.155-0.917,0.276h-0.048v-0.932c0.179-0.049,0.437-0.103,0.774-0.16
				c0.339-0.059,0.671-0.087,0.999-0.087c0.382,0,0.718,0.031,1.001,0.095c0.285,0.063,0.529,0.171,0.738,0.323
				c0.205,0.149,0.361,0.344,0.467,0.58c0.108,0.236,0.162,0.531,0.162,0.882V17.848z M79.492,16.509v-1.516
				c-0.278,0.017-0.608,0.04-0.986,0.072s-0.679,0.08-0.898,0.142c-0.264,0.075-0.476,0.192-0.639,0.348
				c-0.162,0.159-0.244,0.375-0.244,0.651c0,0.312,0.096,0.547,0.283,0.704c0.189,0.157,0.476,0.236,0.863,0.236
				c0.321,0,0.615-0.063,0.882-0.188C79.019,16.834,79.266,16.684,79.492,16.509z"/>
			<path d="M86.457,15.062c0,0.44-0.063,0.844-0.189,1.21s-0.305,0.675-0.535,0.928c-0.215,0.241-0.468,0.428-0.758,0.559
				c-0.291,0.132-0.599,0.197-0.924,0.197c-0.282,0-0.538-0.031-0.767-0.092c-0.229-0.062-0.462-0.159-0.698-0.289v2.28h-0.918
				v-7.447h0.918v0.569c0.243-0.205,0.517-0.377,0.82-0.516c0.304-0.137,0.627-0.207,0.972-0.207c0.655,0,1.168,0.249,1.532,0.744
				S86.457,14.182,86.457,15.062z M85.512,15.086c0-0.657-0.11-1.147-0.335-1.472c-0.224-0.325-0.568-0.486-1.033-0.486
				c-0.264,0-0.527,0.056-0.793,0.17c-0.268,0.113-0.521,0.263-0.765,0.447v3.085c0.258,0.116,0.482,0.196,0.669,0.239
				c0.187,0.04,0.398,0.063,0.636,0.063c0.509,0,0.908-0.172,1.193-0.517C85.37,16.271,85.512,15.762,85.512,15.086z"/>
			<path d="M92.297,17.848H91.1l-2.262-2.494h-0.496v2.494h-0.916v-5.44h0.916v2.347c0.302,0,0.546-0.055,0.73-0.162
				c0.187-0.11,0.343-0.284,0.473-0.524c0.045-0.088,0.09-0.182,0.135-0.28c0.043-0.099,0.086-0.193,0.129-0.285
				c0.168-0.367,0.38-0.641,0.634-0.822c0.252-0.183,0.616-0.272,1.09-0.272h0.419v0.788h-0.404c-0.257,0-0.456,0.055-0.601,0.162
				c-0.146,0.11-0.275,0.302-0.393,0.574c-0.131,0.305-0.267,0.533-0.412,0.684c-0.145,0.151-0.298,0.266-0.461,0.344L92.297,17.848
				z"/>
			<path d="M97.348,15.223h-4.01c0,0.333,0.051,0.626,0.151,0.875c0.102,0.247,0.239,0.452,0.414,0.609
				c0.169,0.157,0.369,0.272,0.603,0.352c0.231,0.078,0.487,0.117,0.767,0.117c0.371,0,0.742-0.073,1.118-0.223
				c0.375-0.147,0.643-0.293,0.801-0.436h0.049v0.999c-0.309,0.13-0.622,0.238-0.945,0.327c-0.321,0.087-0.659,0.132-1.013,0.132
				c-0.903,0-1.607-0.245-2.115-0.734c-0.507-0.488-0.76-1.183-0.76-2.082c0-0.891,0.243-1.597,0.729-2.119
				c0.484-0.523,1.125-0.786,1.916-0.786c0.734,0,1.3,0.215,1.698,0.646c0.398,0.428,0.597,1.036,0.597,1.826V15.223z M96.455,14.52
				c-0.002-0.479-0.123-0.853-0.361-1.115s-0.602-0.395-1.09-0.395c-0.49,0-0.88,0.145-1.171,0.434
				c-0.292,0.29-0.456,0.647-0.495,1.076H96.455z"/>
			<path d="M102.237,13.211h-1.968v4.637h-0.916v-4.637h-1.968v-0.804h4.852V13.211z"/>
		</g>
		<g>
			<g>
				<path fill="#231F20" d="M21.149,9.776h-1.343c-0.101,0-0.184,0.082-0.184,0.182v4.314h-2.634V9.958
					c0-0.1-0.082-0.182-0.183-0.182h-1.344c-0.101,0-0.184,0.082-0.184,0.182v10.955c0,0.101,0.083,0.183,0.184,0.183h1.344
					c0.101,0,0.183-0.082,0.183-0.183v-5.218h2.634v5.218c0,0.101,0.083,0.183,0.184,0.183h1.343c0.103,0,0.185-0.082,0.185-0.183
					V9.958C21.334,9.858,21.252,9.776,21.149,9.776z"/>
				<path fill="#231F20" d="M30.319,19.674H29.99c-0.194,0-0.354-0.157-0.354-0.353c0-1.629,0-8.366,0-9.363
					c0-0.108-0.046-0.182-0.184-0.182c-0.318,0-4.449,0-4.449,0c-0.102,0-0.184,0.082-0.184,0.182c0,0-0.004,1.089,0,1.104
					c0.021,1.207,0,5.888-1.58,8.612h-0.494c-0.1,0-0.181,0.083-0.181,0.184v3.266c0,0.102,0.081,0.185,0.181,0.185h1.055
					c0.232,0,0.339-0.139,0.339-0.34v-1.872h4.786v2.027c0,0.102,0.082,0.185,0.183,0.185h1.054c0.231,0,0.339-0.139,0.339-0.34
					v-3.11C30.501,19.757,30.421,19.674,30.319,19.674z M27.907,19.674h-3.26c0,0,1.824-2.497,1.835-8.478h1.425V19.674z"/>
				<path fill="#231F20" d="M46.382,20.885c-0.183-0.326-3.145-5.991-3.145-5.991s2.567-4.662,2.682-4.887
					c0.111-0.227-0.013-0.214-0.165-0.214c-0.147,0-0.726,0-1.164,0s-0.539,0.151-0.702,0.49c-0.162,0.338-1.941,4.085-2.155,4.436
					c-0.067,0.11-0.137,0.168-0.2,0.197V9.977c0-0.101-0.083-0.184-0.184-0.184h-1.351c-0.1,0-0.185,0.083-0.185,0.184v10.938
					c0,0.102,0.085,0.184,0.185,0.184h1.351c0.101,0,0.184-0.082,0.184-0.184v-5.604c0.087,0.032,0.138,0.096,0.2,0.224
					c0.084,0.171,2.344,4.862,2.506,5.213c0.164,0.351,0.465,0.351,0.814,0.351c0.351,0,0.99,0,1.129,0
					C46.319,21.098,46.507,21.105,46.382,20.885z"/>
				<path fill="#231F20" d="M34.847,15.813c0.55,0,3.14,0,3.14,0c0-0.527,0-0.609,0-1.054c0-4.262-1.696-5.226-3.105-5.226
					c-2.086,0-3.448,2.522-3.448,6.028c0,5.304,2.658,5.797,3.93,5.797c1.273,0,2.237-0.627,2.396-0.732
					c0.119-0.079,0.138-0.104,0.103-0.275c-0.033-0.172-0.089-0.36-0.16-0.653c-0.058-0.239-0.321-0.183-0.425-0.148
					c-0.228,0.077-0.617,0.206-1.454,0.206c-2.843,0-2.532-4.021-2.532-4.021C33.896,15.803,34.297,15.813,34.847,15.813z
					 M34.811,10.929c0.991,0,1.336,1.373,1.38,3.503c-0.516-0.001-1.051-0.025-1.865,0c-0.456,0.016-0.756,0.053-0.946,0.086
					C33.43,12.49,33.97,10.929,34.811,10.929z"/>
				<path fill="#231F20" d="M46.745,15.913c0-2.611,1.039-6.379,3.788-6.379c0,0,0.954-0.063,2.134,0.591
					c0.181,0.101,0.189,0.21,0.108,0.354c0,0-0.587,0.969-0.674,1.09c-0.088,0.123-0.217,0.108-0.317,0.012
					c-0.098-0.095-0.7-0.667-1.293-0.667c0,0-1.905-0.005-1.905,4.797c0,3.747,1.902,4.057,2.532,4.057c0,0,0.665,0.048,1.42-0.199
					c0.23-0.074,0.271-0.07,0.315,0.063c0,0,0.146,0.558,0.161,0.684c0.017,0.125,0.062,0.197-0.059,0.289
					c-0.117,0.094-1.054,0.752-2.375,0.752C49.193,21.356,46.745,20.471,46.745,15.913z"/>
			</g>
			<path fill="#ED2025" d="M12.766,4.205h-0.921h-0.479c-0.287,0-0.72,0-1.337,0c-1.437,0-4.544,0.83-4.544,5.571
				c0,0-0.14,3.587,2.903,4.717l-3.452,6.266c-0.113,0.178,0.059,0.337,0.161,0.337h1.613c0.102,0,0.223-0.072,0.268-0.162
				l3.174-6.11c0.097,0.003,0.194,0.006,0.295,0.006h0.735v6.084c0,0.101,0.083,0.183,0.184,0.183h1.399
				c0.102,0,0.183-0.082,0.183-0.183V4.389C12.948,4.287,12.867,4.205,12.766,4.205z M10.173,13.393
				c-0.797,0-2.808-0.561-2.808-3.904c0-3.343,1.945-3.863,2.742-3.863s1.075,0,1.075,0v7.768
				C11.183,13.393,10.969,13.393,10.173,13.393z"/>
		</g>
		<path fill="#FFC706" d="M114.993,14.163l-6.044-10.771c-0.148-0.262-0.427-0.425-0.727-0.425h-47.84
			c-0.221,0-0.435,0.089-0.59,0.244c-0.154,0.154-0.243,0.368-0.243,0.587v21.451c0,0.219,0.089,0.433,0.243,0.588
			c0.155,0.155,0.369,0.243,0.59,0.243h47.84c0.3,0,0.576-0.16,0.724-0.422l6.046-10.678
			C115.136,14.727,115.137,14.418,114.993,14.163z M107.738,24.417H61.213V4.632h46.523l5.577,9.938L107.738,24.417z"/>
	</g>
</g>
</svg>
